<?xml version="1.0" encoding="UTF-8" standalone="no"?>
<!-- Created with Inkscape (http://www.inkscape.org/) -->

<svg
   width="297mm"
   height="210mm"
   viewBox="0 0 297 210"
   version="1.1"
   id="svg3244"
   sodipodi:docname="anarchy-workfile.svg"
   inkscape:version="1.1.1 (3bf5ae0d25, 2021-09-20)"
   xmlns:inkscape="http://www.inkscape.org/namespaces/inkscape"
   xmlns:sodipodi="http://sodipodi.sourceforge.net/DTD/sodipodi-0.dtd"
   xmlns:xlink="http://www.w3.org/1999/xlink"
   xmlns="http://www.w3.org/2000/svg"
   xmlns:svg="http://www.w3.org/2000/svg">
  <sodipodi:namedview
     id="namedview3246"
     pagecolor="#505050"
     bordercolor="#eeeeee"
     borderopacity="1"
     inkscape:pageshadow="0"
     inkscape:pageopacity="0"
     inkscape:pagecheckerboard="0"
     inkscape:document-units="mm"
     showgrid="false"
     inkscape:snap-global="true"
     inkscape:snap-page="true"
     inkscape:zoom="0.29805759"
     inkscape:cx="1410.8012"
     inkscape:cy="432.80227"
     inkscape:window-width="1920"
     inkscape:window-height="998"
     inkscape:window-x="0"
     inkscape:window-y="20"
     inkscape:window-maximized="1"
     inkscape:current-layer="layer1" />
  <defs
     id="defs3241" />
  <g
     inkscape:label="Layer 1"
     inkscape:groupmode="layer"
     id="layer1">
    <rect
       style="fill:#9ad9eb;fill-opacity:1;stroke:none;stroke-width:0.5;stroke-linecap:round;stroke-miterlimit:4;stroke-dasharray:none;stroke-dashoffset:0;stroke-opacity:1"
       id="rect18355"
       width="297"
       height="29.999922"
       x="6.1232569e-08"
       y="120.00037" />
    <rect
       y="90.000587"
       x="6.1232569e-08"
       height="29.999922"
       width="297"
       id="rect18357"
       style="fill:#ffffff;fill-opacity:1;stroke:none;stroke-width:0.5;stroke-linecap:round;stroke-miterlimit:4;stroke-dasharray:none;stroke-dashoffset:0;stroke-opacity:1" />
    <rect
       style="fill:#9ad9eb;fill-opacity:1;stroke:none;stroke-width:0.5;stroke-linecap:round;stroke-miterlimit:4;stroke-dasharray:none;stroke-dashoffset:0;stroke-opacity:1"
       id="rect18359"
       width="297"
       height="29.999922"
       x="6.1232569e-08"
       y="60.000393" />
    <rect
       y="29.999989"
       x="6.1232569e-08"
       height="29.999922"
       width="297"
       id="rect18361"
       style="fill:#c4c4c4;fill-opacity:1;stroke:none;stroke-width:0.5;stroke-linecap:round;stroke-miterlimit:4;stroke-dasharray:none;stroke-dashoffset:0;stroke-opacity:1" />
    <rect
       style="fill:#7f7f7f;fill-opacity:1;stroke:none;stroke-width:0.5;stroke-linecap:round;stroke-miterlimit:4;stroke-dasharray:none;stroke-dashoffset:0;stroke-opacity:1"
       id="rect18363"
       width="297"
       height="29.999922"
       x="6.1232569e-08"
       y="8.6028081e-08" />
    <rect
       style="fill:#7f7f7f;fill-opacity:1;stroke:none;stroke-width:0.5;stroke-linecap:round;stroke-miterlimit:4;stroke-dasharray:none;stroke-dashoffset:0;stroke-opacity:1"
       id="rect38336"
       width="297"
       height="29.999922"
       x="6.1232569e-08"
       y="180.00008" />
    <rect
       y="150.00031"
       x="6.1232569e-08"
       height="29.999922"
       width="297"
       id="rect38338"
       style="fill:#c4c4c4;fill-opacity:1;stroke:none;stroke-width:0.5;stroke-linecap:round;stroke-miterlimit:4;stroke-dasharray:none;stroke-dashoffset:0;stroke-opacity:1" />
    <path
       style="fill:#23e31c;fill-opacity:1;stroke:none;stroke-width:2;stroke-linecap:butt;stroke-linejoin:miter;stroke-miterlimit:4;stroke-dasharray:none;stroke-opacity:1"
       d="m 171.06138,122.08977 -14.07519,12.46595 c 0.60487,0.61116 1.25572,1.25818 1.94606,1.93491 5.56327,3.21944 15.14417,8.02979 27.65094,11.4607 7.90256,2.16787 18.36443,1.77447 26.48151,0.92935 -6.08997,-0.68522 -11.79466,-2.55916 -16.29861,-5.31152 -10.0955,-6.1693 -20.10846,-15.55055 -25.70471,-21.47939 z"
       id="path48416" />
    <path
       style="fill:#0071fe;fill-opacity:1;stroke:none;stroke-width:2;stroke-linecap:butt;stroke-linejoin:miter;stroke-miterlimit:4;stroke-dasharray:none;stroke-opacity:1"
       d="m 104.61092,67.580277 c -8.288696,-0.486671 -17.014021,-0.39474 -23.894387,1.621196 -6.875744,2.014581 -11.55076,5.054495 -15.290851,7.287745 12.771312,-5.535539 28.25288,-3.70854 38.053108,2.280369 10.21577,6.242836 19.75661,15.883205 24.9958,21.682363 l 14.39307,-12.748973 c -4.00346,-4.228452 -9.93681,-10.072468 -15.41984,-14.565857 -0.63328,-0.518953 -1.48232,-1.225311 -2.36189,-1.950423 -6.32794,-1.942469 -13.41762,-3.19196 -20.47501,-3.60642 z"
       id="path18317"
       sodipodi:nodetypes="cscsccscc" />
    <path
       sodipodi:nodetypes="cccscccccc"
       inkscape:connector-curvature="0"
       id="path18319"
       d="m 80.831189,50.344529 c -3.962266,-0.178754 -10.141769,-0.0065 -14.115571,0.885425 -9.17776,2.059941 -17.113013,5.531847 -23.58304,10.550747 -3.606801,6.176453 -5.945842,17.509453 -4.06537,33.144791 1.420706,11.812458 5.680703,17.212028 8.093099,19.386418 -2.573005,-8.11528 -2.022074,-17.110748 3.001541,-24.94402 3.924742,-6.11984 9.296543,-10.300994 15.256473,-12.884219 3.740091,-2.23325 8.904359,-4.706878 15.780103,-6.721472 12.74253,-3.733528 30.127886,-2.80354 43.887256,1.42462 -7.84613,-6.468649 -25.0076,-19.977959 -44.254491,-20.84229 z"
       style="fill:#0071fe;fill-opacity:1;stroke:none;stroke-width:2;stroke-linecap:butt;stroke-linejoin:miter;stroke-miterlimit:4;stroke-dasharray:none;stroke-opacity:1" />
    <path
       sodipodi:nodetypes="cscscsccccc"
       inkscape:connector-curvature="0"
       id="path18329"
       d="m 253.76819,124.28447 c -0.71693,2.97834 -1.93291,5.90274 -3.71393,8.67993 -8.46865,13.20509 -23.66148,17.4144 -37.00545,15.91459 -8.11783,0.84512 -18.58264,1.23868 -26.48706,-0.92966 -12.50733,-3.43109 -22.08867,-8.24131 -27.65185,-11.46077 4.16478,4.08257 9.67265,9.15526 13.86673,12.71219 7.36055,6.2424 35.2914,27.60984 60.72382,21.90155 1.71692,-0.38536 3.38172,-0.84046 5.00201,-1.3513 7.0266,-6.34248 12.35594,-15.24507 14.05601,-24.92334 1.77934,-10.12893 1.72169,-16.58801 1.20958,-20.54321 z"
       style="fill:#23e31c;fill-opacity:1;stroke:none;stroke-width:2;stroke-linecap:butt;stroke-linejoin:miter;stroke-miterlimit:4;stroke-dasharray:none;stroke-opacity:1" />
    <path
       id="path38316"
       style="fill:#ffffff;stroke:none;stroke-width:0.264583px;stroke-linecap:butt;stroke-linejoin:miter;stroke-opacity:1"
       d="m 186.26546,29.752369 c -21.87807,2.48517 -37.66118,18.180184 -37.66118,18.180184 0,0 -15.27581,-12.316609 -38.03385,-9.507943 -6.96676,0.8598 -14.714265,3.845061 -23.066368,10.176689 -24.476118,18.554993 -19.532774,54.704261 2.467582,80.516711 22.000316,25.81246 69.118896,55.95343 69.118896,55.95343 0,0 38.32849,-39.4561 52.47558,-64.23698 14.14709,-24.780891 31.91878,-73.542974 0.37333,-87.226267 -9.04953,-3.925363 -17.76065,-4.754731 -25.67399,-3.855824 z" />
    <rect
       style="fill:#ffffff;fill-opacity:1;stroke:#08d856;stroke-width:2;stroke-linecap:round;stroke-linejoin:bevel"
       id="rect17095"
       width="163.15565"
       height="148.49342"
       x="480.31723"
       y="181.67186" />
    <image
       width="76.729164"
       height="46.037498"
       preserveAspectRatio="none"
       xlink:href="data:image/png;base64,iVBORw0KGgoAAAANSUhEUgAAASIAAACuCAYAAACSuwChAAAABHNCSVQICAgIfAhkiAAAIABJREFU eJztnXt4E3W+/9+TTG5tEpLesC1aW1CWYAHLJVpxretuYa26ruCzKrtaD7hlz3os7qE/F10QcQEF joq6C6ywixcoiD6yCgjqHtmzKFuRuxSq2FBtm5JekiZpc8/8/phmkmkuTXpLmn5fz8PzzExnJt+E zDuf7+f7uVAMwzAgEAiEOCKI9wAIBAKBCBGBQIg7RIgIBELcIUJEIBDiDhEiAoEQd4gQEQiEuEOE iEAgxB0iRAQCIe4QISIQCHGHCBGBQIg7RIgIBELcIUJEIBDiDhEiAoEQd4gQEQiEuEPHewAEPnq9 HpcvX8aFCxfw73//G+fPn0dnZycA4Ntvvw173fjx45GRkQGNRoOioiL84Ac/wJgxY5Cfnz9cQx9S dDodOjs7ceHCBZw4cQK1tbVoa2tDY2MjHA5HyGuysrKgUCgwbdo0TJgwATNmzIBKpUJOTg6ysrKG +R0QIkGRekTxxWq14uLFi/jggw9w5swZ1NbWora2dlDuXVBQgKKiImi1Wtx5553Izc2FXC4flHsP NXa7HQ0NDfjggw9QU1ODEydOoL6+flDuXVhYiOnTp+OGG25AaWkpsrOzIZVKB+XehP5BhChOHD58 GAcOHMDOnTvR1NQ0LK9ZWFiIBx98EHfeeScmTpw4LK8ZK1arFbt378bbb7+Njz76aFhes6ysDD/9 6U9x7733EkspThAhGkaMRiMOHDiAX/7yl2HPUYlE+FlmGnLMZii8XuSnqZEnYmfQiva2kNdYxRIw CgUaXG7oOoywCARoVirxuqEdcLtDXqPRaLBu3TrcdtttCWEN6HQ6bNy4ERs3bgx7zvyxmbimywqF 14tpWZlQUezxUJ+L7zMBwPtcvkmV453LrWFfo7y8HI888giKi4sH9oYIMUGEaBgwGAzYs2cP1q5d G2T9qEQi3AAvblCkYpZQCLXXDZHLxXPeeXv+i7wUFfL+gp6/CwL+7gbgEolgVIzBR2YrLlgsOOjy BF1bWFiIJ598EnfffXdcBEmv12Pr1q1YsWJF0N9mK+WYQdMoVcqhtnTyPhdvwNc2ls/FJhIBAC7J UvGhyYx6gQBHzNaga0tKSrB69WrMmjULNE1cqUMNEaIhZteuXVizZg3Onj3LO15AC/GgkhWfLIcN EgAuhgn7UPUXAcNARFGwikRodLnxGS3B25YuNLtcvPNKSkrw9NNPo6SkZFBfPxK7du3C0qVLg8R5 rkiIh8Zm4mq7DXKnAx6wwjqY0ACEYC0nnZfBfi+D/V12mHp9LuXl5VixYkXSOP0TFSJEQ4Rer8cj jzyC/fv3847fKE9FuUgIrccJIYZGfELhsw5EFAWrWIIzHgYVlu6gqVt5eTnWrFmD7OzsIRuLXq/H k08+ie3bt/OOPyhPwX0yCa502OABa/UMx2fjE6VmrxcfilPwktka9LmsWrUKy5cvH/KxjFaIEA0B 27Ztw6JFi3jHbpSn4r/EQmjcTgCD/wsfCwKGgYCi4AbwkZvBDpEE5zrNvHOqq6tx3333Dfpr79+/ H3fccQfv2LwUKRamynClwzZswhwK3+diE0vwvt2JVykaFouF+7tGo8GOHTswbdq0uIwvmSFCNIjY 7XYsWbIEW7Zs4Y7liET4tUKGORQDmcsVVwEKBQ3Wb/K+w421Vhvvb5WVlXj66aehVqsH5bV6C7RK JML/EwlQSlOgEV9xDsQnSJe9XvzFK8C7TjfPQtq6dSsWLlwYxxEmH0SIBgmj0Yh77rkHhw8f5o7N FQnxmEqJKx02hA65SxwkAC6AwgteAY5au7jjpaWlePPNNwe8rP3ss8/yHNI5IhG2quQJ/dn4prPH aAmWuhmedVRZWYkNGzYQR/YgQYRoENDpdPjZz37Gc0gvSVNhodse16lGrNBg/TJ7GEGQdVRfX98v h20oK3GBSoFHhUhICzEUErBO7f8RinlL/4Ml0gQiRAPm1KlTmDdvHhf1qxKJ8LxcBq3HOSIeslDQ AGqEYjxhtXGrSBkZGfj4449j9o88/PDDPKf0yjQl7nA7IRhBAg34raM9jABr7S5uqqbVavHee+8N qXN/NECEaAAYDAZMnjwZbW1sQJ1KJMJOlRw5DtuIFSEfvqlapc3NLfVrNBrs27cvasuo93RsSZoK 5W77sK2GDQUChsH/KcZgiaGDE6PCwkJ88sknxDIaAESI+onRaMQtt9zCm44dyFQnhQj58InRvd18 C+CTTz7pM2dty5YtWLx4MbefDCLkQwLgLC3GAx3+lcbCwkL885//HDTH/miDCFE/sNvt+OlPf8o5 pnNEIvxNQmGsQJA0IuSDBnDZ68Ucq5M7VlZWhn379oW9pvcS/TK5DL8QMEkhQj5CiVFpaSn+/ve/ J0TKzEiDCFE/WLx4Med8VYlE+LNCBo175PqE+kIC4BmZgueodblcIVeM9Ho9cnJyuP0FKgUe97pG nE8oGmgAtbQY/2nx+9IqKiqwefPm+A5sBEIKo8XIrl27eCtAz8uTW4QAwAPgRHsHt79mzZqwy9aP PPIIt50jEuFRIZJShAA27knjduJ5uYw7tmXLFmzbti1+gxqhEIsoBgwGA8aOHcvtV4iAR2XShI2D GQxoAHtpMVYGTEHCWUM7duzgKgskk+O+LyQAdnopXsjDhQsXErbUSiJCLKIYeOKJJ7jtW9PV+E2S i5CAYdAskfFEaN++fWGtIb1ez23fAC+uHAUiBAAOAL8QMJiX4vcNPfTQQ7Bag7P6CaEhQhQlhw8f 5uJhVCIR/tNlj++AhgEvRWGXzS+15eXlKCsrC3t+7xo+wUVHkhcvw+DXAi8KaCEAoKamBq+//nqc RzVyIFOzKOi9SrZMLsMDAiaprSEawHmlCvc3tnDH+ppu2O12yGSsv2TyGCVeS1NC2taalP6hUEgA fC4Uo8LIWpAZGRn44osvSAmRKCAWURTs3buXE6ECWoh5SS5CAJsI+0dLN7f/6quvBonQqVOnePtS qZSrZ3Su04xLvTL6kx0HgJluBzdFa2tri1hxkuCHCFEUPPXUU9z2Y1npSd/6RALgEENxpUEUCgUq Kip45+j1evzhD38Iura0tJTbtjD86oijAQFFYWGqfxVt48aN0Ol0cRzRyIAIUR8cPnzY3z2CplFi NSe1A1bAMLCKJTwHdXV1dZCDeuvWrTh16hSMRiPv+JQpU7jtz2UyCId2uAmHG8CVDhsWqBTcsXff fTd+AxohECHqg0CH4xqxMOkfLAFFYZPdXy61rKwsyEFtMBiwYsUKOBwOmEwm3t8mTJjAbb/efHlo B5uguBgGZQIK6BHvqqqqOI8o8SFCFAGr1cqtlBXQQkwXMHAlsW/fFyn8hrXHN0TTeOWVV4LOW7Nm DQDWB+Jr/uhj4sSJUCj81oAlPYPLXB8teCkKGrcTswOW83uXDCbwIUIUgcB8quvFIuQIBEm9AmQT ifCGxV8Ubf3atUErPnV1dTwHbG+LCADmzJnDbZ81mUedn8jHfHkKt/3Pf/4zjiNJfIgQRSCw2uL8 NFVSx8VIANRIZFzLodzc3JDlUF988UXefldXV9A5c+fO5bYv9eqKMVrwMgwmmf0iffDgwSB/GsEP EaIwGAwGfPzxxwDYVaM0Uwevl1Yy4XNQL2k2cMc2bNgQVNLi888/5+XZAUBjY2PQ/aZPn85tf5Mq T2rnfji8FAWlRIKHctiUoLNnz4a0HgksRIjCYDQaudWyUo8L6Uk8LRNQFHZ7/e9Nq9WG7ODxzDPP BB379ttvg46NHTsWGo0GAPDO5Va4epoajjbkLhekrX6H/f/+7//GcTSJDRGiMBw5coTbznDZIYnj WIYSGkCzRIaXOvy/1qHKWOzfvz9kL/rTp08HHcvOzuaECACMijGjzmENsCkuN467kts/duxY/AaT 4BAhCkPgl2ZSZlbS+ofcAF42+WOGqqqqQtalfuyxx7htVYCFc+LEiZD3DXRyf2EenQ5rL8NgosX/ 2YaaxhJYiBCFIfBLM0siTkr/EA3guFDMOagLCgqwbNmyoPN27NjhD+oEcGDcWOT0iJGvXndvbr/9 dm673jkavUSsn0jk9CcDtbW1kYz8MBAhCoHRaMR3333H7Yvb25LSP2QTS/Cy17+/evXqIAe10Wjk lT/ZolZC0R5afAIJzEv7XiKBTSwZldMzgE0ABtgft9bW1j7OHp0QIQqByWRCR0dH3yeOYCQAdnv9 +WThHNQ7d+5EU1MTAGC2Uo4pAlZMMrz+yWpgHSIfCoUCWq0WAPBppwVGavR+1a6VpwIAHA4HnE5n H2ePTkbvtyMCnZ2d3MP389zk61clYBh838tB/cILLwSdZzAYsH79em7/V0IBZD1xQcpUf7BeqKRO uVyOH/7wh+yO241OiWRU+okAQMmwZmdbWxtsNlsfZ49OiBCFoLu7u++TRjjbuvwPRGVlZVBRM4CN JWpoaAAAzEuRYnpA08ipSn8aR7hAvalTp3LbR0AlfZ5eKAQMgyuE/nc+Gr5b/YEIUR/kUEgq3wYN tpf7u91shcm8vDyeD8iHTqfjLePPk4q58iceANcGZOO3tLQgFDNmzOC2/6UfnQmwo9UKjBUiRH0g T7Ivkk0swXaX37+zfPnykO2SN27cCIvFAoC1hgp7dSqRBiS72u2hy+YGOqytFDU6E2BH2fvtL0SI oiBZftUkAN63O3HUyuaHlZSU4KGHHgo6T6fT+RNbaRr30RQvjsrLMEjz+HPIfNO3UPgKpdW7PfjK 0Jo0n2W0eCkK3zpHZ75dLBAhGiX4HNRrA2oNvfjiiyE7cjz//PPc9oNSMX4AJmK+WGtrK9zu0Gfc dddd3Hb3mDGxDzwJ8PR8xgqFAunp6XEeTWJChChKRvqUQkBR+KuA5nrYl5eXh4ygPnXqFK+L7X0y ScgaTKkSKdex4vz582GFaPLkydz2Ec/I/gz7S42BjbuSSJI1UWjgECHqg/8zdqI5LQP2jExIAN4/ uuefgGESWqh8Bc8CW0avWLEi5LmrV6/mtssVqchx2EIGc6rkqUhXsoF6tbW1YYUoLy+PK5T2zuXW Ubly1twT8pCdnY2srKw4jyYxSfY68P0iPT0dCoUCFosFR61duN3Kr7nz89xsXCugMKa9HRkUIJdI cPUYJSiLBfKAkH4P+M7KeERnCxgGNrEYrzj8Xp5XX301ZIubw4cP45133mF3aBq/oDwhp2ReigJl sWCcLAXHAFgsFrjC1B3Kz8+HRqNBTU0NALZi42hpMSRgGDgkUgCsMz89PT0ocp3AQoQoDL4Vo1C8 19QrktjhQYG5C3KGgdjrRZ5Miusy0vEDrwe0uROpEimEti4oxWLIXC4I4W8+6B3ivvACisL7DjeO 9rRD1mq1eOCBB0KeG1jmY6UyBTKXM6xvSO50QNDtF91wK2cAcMMNN3BCdPhyK26nKXjDnp1cGOUK oI1dYczIyIjzaBIXIkQhGD9+PPbt24dLly7h7NmzqKurg8FggMFgCJ3k6XajPmD3y2473v2uKeCI DZPHKDGJliDF4YHM0Y1JmVkYKxDgaruNlxgpYBjeytJAhErAMGiWpmCTyZ9ouXz58pC/yvv37/dX pKRp3OEOL0I+UgX+mb1OpwsZBgAAP/nJT7hVOINUBriTv0suwP4IfGH2Z98Hdjgh8CFCFAKapkO2 VrZarWhqaoJer0dXVxcaGxtx/vx5nD59mldWNhTnOs04F1hnPqAaIsAW5y9KT8M4lwtZdhvSJRIo U1OQJ6KDkkyjnfKJehzUpp5p0/z588O2jA4s87FSmQKJ29lnE8k0sRgAGyn83XffhYzOBvidPU5T FGwiEUSjoISsEIA+oAxIUVFR/AaT4BAhigG5XI6JEydGbLtcV1eHixcvoqWlBQaDAZcvX8b58+dx 7tw5Ln8tFPVuD+oDnMnodgC+TqtuNydUkyVi5FgsUFCAyO1Cbnp6SN+UEMAHbobnoF63bl3I1962 bRtX5mOKUIA5AopdKYtgiXkA5CsVQE++WqRaO1lZWdBqtaipqcGn7UaY5WJkUlRS+4kEDAOrRIp2 mQLo+T8ILBZH4EOEKAx6vR51dXXQaDQQiURQKBQhY256E0qorFYruru74fF4YLfbUVNTg2+++Qb1 9fVobW1FW1sbvv322+BpX8BKlE+o3gn4s0okQm6HGWrGC7nNBbnXA21uDsZ5vXCIRFgX0Ld+1apV IR3URqMRr732Grf/W6UccqcDjihEIsvtt2oMBkPY89RqNaZNm8b5iTpUaRhrNiW9n8hst+ETB/tj UlhYiNTU1DiPKHEhQhSGuro63HrrrQDYX7JZs2Zh8uTJGDduHLRabciHOhxyuRxyuZzb732t0WiE wWCAzWZDd3c3dDodjh07hvPnz4csz+rD5HLB1Mmf4rzzXXPQeRqNBo8++mjIexw4cIATiFvT1ZgC Nzwe9hc9ksXiZRiMcfitMLM5cp/7wsJCbrum247rgKQuqi+gKLSLJDBZ2c+luLiYLN1HgAhRGAKt mtraWtTW1gadU1hYiLlz56KoqAhXXXUV8vPzwzpsI6FWq3kO5OLiYixYsIB3jk6nQ0NDA1paWtDZ 2Ynz58/3KVQ+1q1bF9JBbTAY8NRTT3H7LpcLZ4QCKGgxrh6jREp7Gy/uJ9A3JaAoqL1+KWlvb484 hsCKjRcsFnhkyV1QXwjgi4AwvUAhJgRDhCgMCoUCZWVlETt0nj17FmfPnuX2MzIykJ2djenTp2PG jBn48Y9/DLFYjMzMTJ5F1B/y8/ODLCm3280FEjY0NODixYtobGyEwWBAU1MTdDodZs+ezWt4GMgb b7zByxM7YrbiCADQNHIsNkgZL9I8Hkwco8A0pQLjvF4uHEHNeGG2+0uJtLW1wWg0ho2TCRTodoUS 3WNSkzqeyAHgiNFf7ylQiAnBUAyTwCHBcebZZ5/lIpAflKfgR5npOOZyo6ZJjw6hEK2ylIjxRgAr TkVFRcjPz8eECRNQXFyMSZMmQSaTQSqVRrx2oFit1rAC6Ha7MXXq1PAhCRFQiUS4RiGHnAI+bWdr EWk0GnzyySdhLUK3243777+fC5jco5RhPONNSiESMAy+pQR4xOaGyeWCQqHoc+o62iEWUQRuu+02 TogMDgemt7diOoDFCimsYgl0XgbWVAma0jNwzuHkrVD5aGtrCzl90mg0uPnmm1FYWIirr74aRUVF /ZrWRSKSFUbTNM6dOwe9Xg+dTgen04mWlhacOHECtbW1ES1Bk8uFYx38Ymi1tbUwm81h3wNN0ygp KeGE6Bwtwg/cbNnUwOBOHyNZoEQUhSa5AiYz68CvqqqK84gSH2IR9QHV80CoRCLsVMlxhb0bXori cssCgw+FYFMYGlxunLjcgsuSFHwvkXBWQzRotVqUlZXh5ptvhkqlQl5eXlzTAnxCpdPpYDKZ0NDQ wDnTe5f/OHnyZMhEWh+HDx/mFgAA4EZ5KopUSlzj9SClsxNyiQQqoZBdBQyTKuP77BNZqCQA5tg8 XI7ZZ599FjbGisBChKgPlixZwkUFr0xT4u4+Io59kdFCsH4Cl1gCs90GT0YWarwMzjU1wSoQ4muG XZLvi8LCQkycOBFTpkzBNddcg1tuuQVCoRBpaWlRhRMMBXa7nau9bDKZUFtbi0uXLuGee+6JaNUZ jUakpaWFvzFNowAM0pVKMEYjlyqTLxQgy2qF0Mbm/CmlMsicjmFNlYkWAcOgRZqC21vZH5/c3FzS zywKiBD1QeCveI5IhEMyYZ8Rx73xWU+ingfFAcAgkaHLYUeTXIFvBEJ82GJAByWAiWF48UOhKCgo wA9/+ENce+21yM/PjzmcIJ7MmTMHR48e7dO3Fo7JY5SYJJUgpasLMkc3shVKTExJCUqVCZToQGtq qKHBdkdZ25Pbt2rVKixfvnzIX3ekQ4QoCsaNG8dFRVePuwKTzKYBx8AETu18S+Q+v9MluwOd6en4 otsW07SupKQEpaWlePzxx4fcET5QDAYDmpub0dTUBIvFAp1OhxMnTuDo0aMRI9D7Ikckwk8y03A1 TUPS1oZ0iQRXjlFCRaHfqTKx4BKJUOr0J01fuHAhYiQ+gYUIURRs2bIFixcvBsCunj0mGJqY4N4J rz6xM6Rl4GunE+dbDbBnjsW/DG1hp3Vr1qwJ2a0VYKdURqMRmZmZcZvWRYsvsv3bb79Fc3Mz2tvb cfHiRZw/f57XdTYqaBoKmQxCux1pjBc3Z2XgOloIpcXKlbzNTU8HZe6EPCAHrrdvqi8kAP4hV2JJ Tx7h/PnzsWfPntjGOkohQhQFer0eN954I+ecPZCp5pzWw0Fvv1O71wuPLBXfuz2oMPKXhW02W1hr aM6cObh48SImTZqEcePG4frrr4dWq0VeXh5EItGAY52GGl+qTFdXF5xOJ06ePAmdToevv/6aS5Vp bGyM2aIKDEdIs9mQKhCgME2FyQIBhG2sqCilMoDxcn3dgGAHukMiRZXTgyNmttrBvn37wiYZE/gQ IYqSQKf1g/IUVAm8MfuKBgufMNnEEtzY5k/p37p1KxYuXBjymv379+OOO+4Ie8+SkhJMnTqVE6lb brkl4YWpN1arFa2trejs7ITJZEJTUxOOHTsWVXWEvpiZpoZGKoba7oDIYoJaJMG0rEyorf6E48+F Yu6HQaPR4Pjx4wk/RU4UiBBFiV6vR05ODrtD09iTIsI1fRSVH0poANtpKdettaSkBJ9++mnIc61W K6677rqI3TbCUVpainvuuQcTJ05EdnY28vLyRvTD5UuVaWpqgtVqxcmTJ1FXV4fjx4/324EOsFaV KcBaqq6uDtnCmxAaIkQxEBhpPS9FiuV0fBI3fZG793a7uBW2SLEq27Ztw6JFiwCwdY9WXMkK6tHG 79EmkqJDJsNJs5X3IIWEpqG59lpkZWXhRz/6EW6++WZkZ2dDrVaP6IROu93Opco0NTVxviiDwYDW 1lZcunSJE7BocblcCe+HSySIEMVA7ziYv6RKMEMw/FHANIBn3eC6tVZUVPC6sgai1+sxe/ZszsG7 Ra1EscfJ1SzygG26aKQEMHk8aFWOwYdNzfiaAeyUAM1RhBNotVpMmjQJBQUFePzxx0fclK4vjEYj 7HY7zGYzbDYbLly4wEWgt7W1oaWlhSdSmzdvRkVFRRxHPPIgQhQjGzZs4EL2c0QiHJAJh9UqogHU BPgiAKC5uTlsIGHgeGcr5XgpxGgDO5AEhhNY0jPwlaEVbQzQlJaG9y63cdHC4fj0009RUlIS03sa 6QRW7gQw6t7/YECEKEbsdjtmzZrFZd0vSVOh3G0fVjGaYfbXfI7koOb5tQDsTFNCE0Utah+h0ljc YMMJ/tXWDptYgtMUxYt1inalqK6uDjabLe4pLITEgExiY0QqlWLt2rXcCtRLZitmKVNiesD7Cw1g Ly2Grz1NXl5eyJbRPrZu3cpt3yhPjXmMviln76ipK9pb8QsBBbjtsIlE2CRPwRtWthJhtA7ft99+ GytWrIBWq8WVV16J/Px8FBUVQavVIjU1FUqlckQ7xQmxQYSoH5SVlaGyspJdzne78VynFVvUCkgc 9iHzFwkYBjaJFCtN/h5rf/rTn8I6RPV6vb+JIk3jv8RCIIrctmjwUv52QDKXC7MZBm/07EebV3XN NdcAAGpqargKkT4yMjKg1Wpx0003ISsrC9OnT4+YTEsY+RAh6id//OMf8c4776CpqQlnPF5s6HZg JU0NWWyRgKLwqtvLOY4jdeQA+P3r51LMkFls3l4z+4sXL0Z1XbhibQBbOmX//v1BpUhyc3Nxxx13 4Oabb0Zubi7y8vJGTI4dITLERzQAPv/8c9x0003c/jK5DL8QDH5sEQ3gCw+DX3f5Za6+vj7sQ3jq 1Clcf/31PRfTOKBWDFkkuIBh0JKeiQeaLsPkckWMZ+pNZmYmV5StoqdyrDVVga8FdFC9o3Dk5eVh 5syZ0Gq1KC4u5rqpjuRwgtEIsYgGQHFxMdavX8+tSq212nC1WomZbsegPvQ2kQh/83qBHntrzZo1 ES2BwP71D0rFyArTv36wUFFAGuOFCcDhI0eivm7evHnYsmULAGC6WIIbhRQcXhdctABmuRjtYinq 5ArU6FvQ7GXwnUAYFOvU0NCAhoYGf6tssOEE06ZNQ25uLoqKijBz5kykpKRAKpWS2J4EhVhEg8DD Dz+M7du3szs9FkiOwzYollHvREogcj4ZzxoCcGgYeoi5xBI85hVwVky0X6nAQMv1V+VgrqkDDoSu TOArndLY3Y3uMWNwEhReN7T3GePkIyMjA3fccQfXieX6668nWfEJBBGiQcDtduPuu+/m+TQOycUY KxAMSIx8iZSB+WR9LY8HliwZrtACCYCHLXZ82fNN6ujoiGpJPrDW02ylHJvgjuhjC6xOEFg6xShX 4NOmRrgUKjTIZHivSR/12DUaDe677z4UFRVBrVb3uxMLYWAQIRokjEYjCgsLORGYPEaJ1xnngO4p YBi8IZJx+WRlZWXYt29f2PMDH2yVSITdEmpYOqpKAFTZXDjoYlfl+ioZ66N3pPoppTRm0Qy0nrwM A4dYzN5bQOObVDmOt7XD4HDg+5RUnOvsu4B9QUEBrrrqKkydOhUzZ87EjBkzoFQqoVarSTjBEEKE aBCpq6vDD667jpsuDKR2EQ2glhbjgQ7/wxPpAXe73SgrK+MK9S+Ty/CAgBmWCgESAJuVavypkbVE Yil/MWXKFC449MDV43BF++C0GOpdOsVXEbNDKMKZ1FT8S38ZbQJhVCksPof4lClTUFBQgPz8fFKD epAhnrtBZOLEidi3dy8X7PiGtRsFaUrMcztjFgQ3gD+7/SJWVVUV0co4dOgQJ0IFtBAl8MAR0OBv qMkQ+F+rpaUlwpl85s6dywnRKUMrbqepQWlF7Yt18knMFXY24PIajxPFZicWp4q5ipgWBtBTwFci SchOLKEc4tFOPwnRMXzf1FFCWVkZL6J5ZYcZnwvFkMRwDwmAj9wMV2Clef2XAAASrElEQVQLNB22 6iLA5jpt2LCB218kpjFWMHz/tR4A+UL/6xmN0Ze3DWw8aJDKguKSBgtvzxTVDdZCcgAQOR3QuJ3Q epy42+3Ek91mnFBI8Hn+OFSPuwJVImCuSBh0r5MnTxIRGmSIEA0BCxcu5PWyesJqw/cSGS+5NBwC hoFVLME6l98ueGv79ohf/N27d3OFvyaPUeJWmXhYc9+8DIPUgHrQvg4f0RDoGD5NUZyPZ7hwB/zz iZW0rRWTzCY8KJPi5/JU3vlbt24lUd5DABGiIWLNmjXIzc0FwDYk/H1HZ1S+DwFFYbeX4uJlcnNz sWDBgrDn2+12PP3009z+YwLwypkOF6kSvyO3vr6eq+/TF1lZWdBqtQAQU6OAocT3//S9RMarclBZ WRk2wZgwMIgQDRE0TePYsWPc/hmPFy8KRJGvAfANKG6VDGCTQyOxbds2bqVOJRKh2DP0ybehENq6 oBKx76+5uRl2u72PK1jUajXPwrgkS42745IGW6OpyunPzSssLMRLL70Uv0ElOUSIhpDs7GxeusMO kwVH5MqwD5obwDabf8m/srIy4uqM1WrFo48+yu7QNNaJBRictNb+cY2CLYjW2NgIVwxWWWFhIbdd 021HsFdm+BAwDGxiCZ7ptHLL/RqNBocOHYrjqJIfIkRDTElJCdavX8/tL2k2oJYWB4kRDeCIXMnF 4mRkZKCysjLivV9//XVue3aKFDME8SldC7BdLvJE7Luqra2N2iICwMvX+95uj5uYCnrikDZ0O7j/ BwDYsWMHCXIcYogQDQNLly7lxdVUuNhf3UDn9WWvF+ta/T6SlStXRswn0+v1fmsIwH/SAl4Bs+HE S1EQOR2QOKIXn0Dy8vK47e+ksqDPZrgQURQ2OTxcCV6ArThJnNNDDxGiYWLXrl2c89piseB/hGLO KSoBsAM0V4a1sLAQv/3tbyPeL7DMxwKVAtcOQ2G2SEgACAPqHel0uqivlclknFAf6zCi0TmwiPT+ QANY7xVwBd4AthMHKfs6PBAhGibkcjkvPeOdy614i5ZCAnZ1JvABePnllyPeq66uDjt27OD2F4jo uDt4AUDm8L+H7777LurrpFIp74FvkiuG1boTMAx2eyne/8GaNWtIO6BhhAjRMDJt2jS89dZb3P5L HSbs9FJ42eRfIp4/f36fv8LPPfccV8fnQXkKrrB3x9UaAtigxkmZ/hpA0VZq9DFu3Dhu+18m87A5 rCUA9jACrLX6Y5+qqqoiBpASBh8iRMPMggULeE7otVYb5xhVKBR9WkM6nc5fcgTAgrhLkB+VxB8/ HqsQ3XLLLdz2SadrWBzWEgDbaClPhCoqKrBu3bpheHVCIESI4sCGDRt4S9Y+1q9f3+fqTKBvaEma CjkCwbD3VQuFl2GQFeBg7uzsjHB2MIHvu4MSoDnKSPT+ImAY7PTyY7Yi9YcjDC1EiOIATdPYs2cP FAoFd0yr1UaMoAbYome+ioY5IhFKhRRcCVI8wUtRUFv84tPaGpw82hfz588HwEaiN3Z3D5mfSMAw QdOx+fPnExGKI0SI4sTEiROxadMmbv+FF17os0Pqxo0bue2HJDSuHOISsLEiCghibGtrg9Vqjen6 efPmcdvNkljShKMnlE+otLQUf/vb34bk9QjRkQiLLaOWBQsWoL6+HjU1NX3Wtzl8+DDnGyqghbhL QsMRh5yyvlCJRDC5XGhpaUFra2tM7aevuuoqbns/hLh7kMfm8wkFTsfKysqwd+9eUss6zhCLKM4s W7YMe/fu7fO8Z555htteJKbjktgaDbdmZQBg6/U4Y4wHmjBhAhfceKzDOOglQXr7hMrLy7Fv3z4i QgkAEaI4Q9N0nw/C4cOHuTIfAFBKUwm0VsYnp2emaLFY0N7eHtO1WVlZvIL2LemZA3ZYCxgGAobB y15B0OoYmY4lDkSIRgCBUdZrUiQJO5+mAShNpj7Pi8TUqVO57S/M5gE5rAUMAy9FYbWHH6xIVscS DyJECc6uXbtQW1sLgO1ff3sCW0MAoPD6C7rFEl3tI7Bio2kAX08aQCvDoEok4+WOrV+/nohQAkKE KIGx2+28GjgPM4ksQcHEkm/mIzABtsbpgk0c++qZr67TSoh4xdZeffVVLF26NOb7EYYeIkQJzD/+ 8Q/U1NQAYGsnFwkT2xoCgPw0NdDj8zpx4kTM12dmZqK0tBQAcNTaBbPdFpOfyCdClTY3jlq7uOPV 1dV9JhIT4gcRogTF7Xbz0j3mZqbHVIA/HngZBmMCHO/ff/99zPeQy+U8P1GHKi1qPxENoEYoxr1m G1fJAGCL3ZME1sSGCFGC0rvm87Fu27D0KBsoqgDNqDl+vF/3CFw5+zCKBFifxbTbS/FqTGu1WtTX 15N6QiMAIkQJilQq5RXF32Gy4HiMbYmGGy9FQdHe5m9YGGUB/d7Mnj2b2zY4HBETYH1VFde6wVue Ly8vx/vvvx+xuBwhcSBClMAUFxdj1apV3H6FpRvNXm9cqhfGQo7I3yTAYDDEfH2gw/r7lFR0p2eE fM80AIdEiioXw1sZq6iowKZNm5CVlRV0DSExIUKU4Cxfvtxfn8jtxrMCMUQJlF8Wigyv34Zpbm6O +XqpVIry8nIAwLlOM5pCBEZKwLbk/mlnt78RJdiVsc2bN5M+9SMMIkQjgL/+9a9cpv4RsxU7vVRC W0XXj83ktk39DHAMnJ5dUqk5h7WAYSAB8IGbwQMdZq7/G8DWlyYrYyMTIkQjgPz8fF6m/lq7Cy3S lISNsL46YOWspaWlX/cYP348t32gywYh/JHS79JiPNnNd91fuHCB1JcewRAhGiEsWLCAm67A7caz NidsosgNG+OBB4Da7bdSurq6wp8cgRkzZnDbvqBEh1iMFwUirOzwr4yVlJSgo6ODt9JGGHkQIRpB vPLKK8jIYLPbj1q78L7DnXCraF6GQUpAdcb+OKsBNp6ooKCA2/+HXIkKUxd2mCzcsaqqKnz44YdQ q9X9HzAhISBCNIKQy+W8etVr7S58P8QlVfuDPKCoWUNDQ7/vE1gobUmzAWc8/jy2zZs3Y926dcQp nSQQIRphlJWVcSkQcLt5HUASBZHbBVXPtLGuri4oODNaAhNgA6murkZFRUW/x0dIPIgQjUC2b9/O TdEOujw4RksSaoqWm56O3BQZAOCrr77qtxBlZ2fz6noXFBSQdI0khQjRCCQ7OxvPPfcct/+8pSuh Ah0piwVqhp1G+fqv9Ye8vDxoNBoAbF3pL7/8kqRrJClEiEYoCxYs4No017s9+FCcMqzdUcPhpSjI nA7Ibf50i/5aRFKpFJMmTUJlZSX2799PnNJJDMUwCfIzSoiZU6dO4frrr2d3aBoH1ApcYe+Oe2cP CYAqm4trHHny5Ml+WzJ6vb7PXm+EkQ+xiEYw06ZN83eNdbuxxuFKmPQPeUCaR1NTU7/vQ0RodECE aITzxBNP8NI/vlKqEiLienJuLrfd3+hqwuiBCNEIJzs7GytWrOD2XzZZ4h5x3Tu6uj+Jr4TRBRGi JGDhwoUoLCwEwEZc10hkcV/OHyvwf7UsFkuEMwkEIkRJgVqtxtq1a7n917rssPaj6Pxg4WUYpJk6 uP3W1ta4jYUwMiBClCTcdtttXMT1uU4z3rc7424V+WhubobVau37RMKohQhRkiCVSrFs2TJuf5PD DatYkhBBjo2NjWR6RogIEaIkoqSkhItENrlceN/ujEuQo5eioJTKMDONDUCsra2F3W7v4yrCaIYI UZLx2muvcdtr7a64rKD5rDB5gAY6nc5hHwdh5ECEKMkoLi7G/Pnz2R23G+873MMeV+SlKIicDlwl EXPHbAEpHwRCb4gQJSFPPfUUt/26w92vts0DQQJABwp/b/WvnJ07d25Yx0AYWRAhSkKuu+46zipq drmw20sN2wqar7D9vd0uXmH7yZMnD9MICCMRIkRJCE3TvG4WH3u8Q76C5rs3V9i+J+PeV0OIlO8g RIIIUZJSUlLCdbU412lGjVgyZAmxvm6rb9FSXmF7jUaDo0ePEhEi9AkRoiRm6dKl3Pa6VuOQvIav 2+qToPFSh7+HWUVFBU6fPk26rRKigtQjSnLGjx+P+vp6AMAWtRJajxP9K1MWDA2gWSLD7UYLr8/9 5s2bSU1pQkwQiyjJWbVqFbf9nrVrUEXovFKFB0xWngi99dZbRIQIMUOEKMn5yU9+wkVbH3R5YJDI BhxXJAGwlxbj/pa2oJbPCxYsGODdCaMRIkRJTlZWFn75y19y+ztc/beJfCtj670C1indYwlptVpc vnyZtHwm9BviIxoF6PV65OTkcPsHMtUx17amAVz2evEXrwDvdvvzxubPn48333yTNDokDAhiEY0C srOz/bWtAXzkYWJayvc5pVdCxBOhVatWobq6mogQYcAQi2iUENjxI0ckwrtjUiBx2Pu0iiQAztJi PNDB7yhbXV1NGh0SBg1iEY0Spk2bBq1WC4BN+6gRS/osESJgGLzbS4QUCgXptpogGE+fgfH0mQEX nWs8eCio95xFp4NFpxvQfWOBCNEoYvny5dz2y4Z2CMOc53NKv8QIsdLczR0vLS3FsWPHSKR0nLHo dPjsV+U4/YencfoPT+PLn9+LxoOH+n2/umf+GCREl3buQuu/v+jX2M6uXhtzU81E6DxDGCZuu+02 5OXloaGhAfVuD87SqdC4+QGONACbWIxnzN1cg0SAdUr/5S9/Id1WE4ALr/wZ4sxM3PTmdgA9llHt +X7fTyiXBx0rfGpZiDOjQ5yWBrvdDnmI+4aDCNEowldOdvHixQCAd+1OXBvwDZAAuAAKlWY7mgNE qKqqCuvWrRvm0RLC0fXNRUz94zPcvnrqFKinTuH2Gw8egvH4CfZv04swbu4cAKxgNe7bD4/djoyb inHFj28DTfMlwKLTofngR0jNvxqp2dmglQp01n0NANB/9AmU10xAztxSKPLzYTQaYdj1NmzNzRBK pejSXYJ6ehEm/ib2gFYyNRtl3HXXXSgoKAAAvNtthw4UaLAi9LlQjEdsbjQHBClWV1cTEUowVNOm 4PTSJ0L6cI79rgoNO6qhnl4E9fQinH3sv1G3aQvqq3fjxOLfQpyWhrz583Dxf17Cl4t/y02haJqG 0WjEkTl3Iqv4RhiPn4Cx9jw6677G2d8sgvH4CUx46FcAgDMrnoFFp8OJ2+8CAOTNnwdxWhqM//cZ cn/Vv4BWIkSjjOzsbJSXl3P7H3hZh/W7tBgVRjMXKa1QKPDZZ58Rp3QCkve7JVDdMAtH5tyJz35V jvrq3QBYi6frm4u46c3tuOLHt8F4/ARkeVciNf9q1D25FLN2voGJv6lAl14PgLWWfBaR3W5HXdXv UfD4f/GsKwDI+Pl9KHxqGdRTp2DibyrgMnXi0s5dSP/xjzDxNxXc8exfzIPpyGf9ek9kajYKWbRo Edcd9hOHC91pKrxz2d97LC8vD0ePHiV95xMUtVoN9bPPYMITVTAd+QxnH/tvmGtrIcvJwVUP3Afj 6TM4Nnsmsn+/ErM//ACWc7XI+Dn7g/LZr8rharmM6X/5MxT5+ewNpVJ8teS/w06rlNdM4O1Lx2bB Y7dDGCJ+zGk0BR2LBmIRjUKys7O5ZNhml4snQpWVlbh48SIRoRGAXC7HuLlzcOuZL2F46TmIVCrU Pf0saje8gBvPXEDhU8s4i6ftrW04/uv/RN6C+1Hy8Yd+EepBqFTCFmVrcI/DgfH/UQ7zhTqcXb0W jQcP4ezqtei61ICC+3/Rr/dChGiUsmjRoqBjW7duxYYNG4IcmITEovHgIV7skK8xgVozCbK8KzF1 06s8oaGVCgDA1A3Pc45rgHVMu91uwG5H4ZpnIZRKcex3VVGPQ7P0d+jSXYL+o0/Q/u8vIJT0vyAx EaJRSnZ2Nvbt24fc3FyUlJTg5MmTWLhwIRGhEYD+o0/w5f2/4gIaTz/4H8ha8nuop05BauF1OP2b R9kVsoOHcOx3Vbjwyp9R+EY1/n3vA6iv3g3j6TOo27QFxx/7HS/ex7dkf3b1Wngi9KFzmToBAIrJ GtywdQtmvrAes9/bA4/D0e94JpLiQSCMQOqrd0N/4EO4TJ246oH7eFOixoOH0PbZ53B1dSN95gxc de88dlWsZ/ne3t7BW4av27QF4x/x/wjVbdoCkUoFtWYSAKBLr+dZUvXVu5F5w6yg6Z0vbKA/MUhE iAgEQsycXb0WXbpLmPzU70FlZoJpbcWRH/0QN+zdH7TqFg1EiAgEQszY7XY0/O116A8chEg1Bi5T Jyb8djHPcooFIkQEAqHfWK1WMK2tQdO0WCFCRCAQ4g5ZNSMQCHGHCBGBQIg7RIgIBELcIUJEIBDi DhEiAoEQd4gQEQiEuEOEiEAgxB0iRAQCIe4QISIQCHGHCBGBQIg7/x9OtvALz1aRXAAAAABJRU5E rkJggg== "
       id="image3313"
       x="-84.874817"
       y="43.039658" />
    <path
       sodipodi:nodetypes="csccccsc"
       inkscape:connector-curvature="0"
       id="path18321"
       d="m 43.144142,61.771734 c -11.466003,8.888678 -18.314188,22.649802 -19.19152,42.138116 -0.422041,9.37428 1.370532,18.52202 4.828144,26.66141 19.26437,16.22161 44.062928,10.1119 51.495595,7.39162 -2.031235,0.12671 -4.089097,0.0994 -6.177693,-0.10941 -12.83063,-1.78438 -23.19358,-11.73074 -26.938361,-23.54156 -2.412409,-2.17439 -6.672393,-7.57396 -8.093099,-19.386418 C 37.182351,79.2538 39.535934,67.931697 43.144142,61.771734 Z"
       style="fill:#9100ff;fill-opacity:1;stroke:none;stroke-width:2;stroke-linecap:butt;stroke-linejoin:miter;stroke-miterlimit:4;stroke-dasharray:none;stroke-opacity:1" />
    <path
       style="fill:#ff218c;fill-opacity:1;stroke:none;stroke-width:0.264583px;stroke-linecap:butt;stroke-linejoin:miter;stroke-opacity:1"
       d="m 481.39042,20.627494 c -1.57305,-0.0014 -3.10975,0.05843 -4.60892,0.171938 -5.09356,2.434773 -11.01714,6.206797 -16.52332,12.006663 -9.091,9.575867 -10.86389,16.626176 -11.04697,20.235461 9.05437,-6.176446 23.43219,-13.09361 39.34559,-9.713382 35.3425,9.469989 13.38391,53.731291 -2.88321,76.274936 -1.96961,2.68578 -4.32244,5.51375 -6.90357,8.39305 4.74969,3.59464 10.20395,6.30574 15.9299,7.81505 2.77078,-3.19107 5.29913,-6.2936 7.44668,-9.22203 19.18279,-26.15817 39.75855,-75.045938 11.01274,-96.241311 -9.02541,-6.654753 -22.71526,-9.712165 -31.76892,-9.720375 z"
       id="path18333"
       inkscape:connector-curvature="0" />
    <path
       style="fill:#20b1ff;fill-opacity:1;stroke:none;stroke-width:0.264583px;stroke-linecap:butt;stroke-linejoin:miter;stroke-opacity:1"
       d="m 373.66455,92.174689 c -2.30984,8.473991 -5.26308,24.816161 0.0594,41.250271 23.88224,28.84229 60.84826,58.92826 60.84826,58.92826 0,0 19.80999,-16.21799 39.10519,-34.74929 -5.19249,-2.90724 -10.18929,-6.22276 -15.0038,-9.77909 -11.82243,10.67833 -22.27224,18.91164 -22.27224,18.91164 0,0 -35.88224,-28.40206 -52.13019,-52.57264 -4.75335,-7.07118 -8.39938,-14.58071 -10.60666,-21.989151 z"
       id="path18339"
       inkscape:connector-curvature="0" />
    <path
       style="fill:#ffd800;fill-opacity:1;stroke:none;stroke-width:0.265;stroke-linecap:butt;stroke-linejoin:miter;stroke-miterlimit:4;stroke-dasharray:none;stroke-opacity:1"
       d="m 398.73893,20.45346 c -7.97955,0.07006 -17.11578,2.439643 -27.36765,8.510481 -7.57858,4.487814 -13.18519,10.483287 -16.99091,17.452213 2.68263,-0.427058 5.37815,-0.692633 8.0485,-0.801691 7.97299,-0.150094 15.50996,1.285245 22.66923,3.822583 0.82841,-0.558499 1.6922,-1.095588 2.60222,-1.604098 25.27415,-14.123098 51.61575,13.31021 51.61575,13.31021 0,0 3.70288,-3.877551 9.89514,-8.101602 0.18308,-3.609285 1.95597,-10.659594 11.04697,-20.235461 5.50618,-5.799866 11.42976,-9.57189 16.52332,-12.006663 -22.35657,1.69296 -36.31635,15.311324 -36.31635,15.311324 0,0 -15.65979,-15.886136 -41.72622,-15.657296 z m -29.30162,57.231176 c -7.2174,-0.03544 -14.38508,1.889164 -20.41583,5.928549 1.93072,12.399885 6.99817,25.113765 14.72351,36.606395 2.88666,4.29436 6.27772,8.73528 9.97968,13.20608 -5.32299,-16.43476 -2.37064,-32.77769 -0.0608,-41.251661 -1.46239,-4.908487 -2.29414,-9.772709 -2.39323,-14.435545 -0.61084,-0.03097 -1.22257,-0.05086 -1.83334,-0.05383 z"
       id="path18346"
       inkscape:connector-curvature="0" />
    <image
       width="70.908333"
       height="49.741665"
       preserveAspectRatio="none"
       xlink:href="data:image/png;base64,iVBORw0KGgoAAAANSUhEUgAAAQwAAAC8CAYAAACNMZBSAAAABHNCSVQICAgIfAhkiAAAAtJJREFU eJzt3bGJW0EARVHN7sCClSyuwODYDag5dadNXYNx4sCwGCtb+buFmw0D51Twosuf+cGM6/V6nACC p9UDgH0IBpAJBpAJBpAJBpAJBpAJBpAJBpAJBpAJBpAJBpAJBpAJBpAJBpAJBpAJBpAJBpAJBpAJ BpAJBpAJBpAJBpAJBpAJBpAJBpDN8/m8egOwiXm5XFZvADbhSAJkggFkggFkggFkggFkggFkggFk ggFkggFkggFkggFkggFkggFkggFkggFkggFkggFkggFkggFkggFkggFkggFkggFk8xjH6g3ABsYx TnM+nlfvADYx319eVm8ANjF/vH5ZvQHYxBynf6s3AJvwlwTIBAPIBAPIBAPIBAPIBAPIBAPIBAPI BAPIBAPIBAPIBAPIBAPIBAPIBAPIBAPIBAPIBAPIBAPIBAPIBAPIBAPI5mN4ZgBo5tPHWL0B2MT8 9tlTiUAzjuPwfDuQuPQEMsEAMsEAMsEAMsEAMsEAMsEAMsEAMsEAMsEAMsEAMsEAMsEAMsEAMsEA MsEAMsEAMsEAMsEAMsEAMsEAMsEAMsEAsnmcPJUINHP4yACi+fbrz+oNwCbm9/eP1RuATcw53GEA jQsMIBMMIBMMIBMMIBMMIBMMIBMMIBMMIBMMIBMMIBMMIBMMIBMMIBMMIBMMIBMMIBMMIBMMIBMM IBMMIBMMIBMMIBMMIJuPMVZvADYxv/7+uXoDsIn56fF39QZgE+4wgEwwgEwwgEwwgEwwgEwwgEww gEwwgEwwgEwwgEwwgEwwgEwwgEwwgEwwgEwwgEwwgEwwgEwwgEwwgEwwgEwwgEwwgEwwgEwwgGze brfVG4BNzPv9vnoDsAlHEiATDCATDCATDCATDCATDCATDCATDCATDCATDCATDCATDCATDCATDCAT DCATDCATDCATDCATDCATDCATDCATDCATDCATDCATDCD7DySLJbr1KQO9AAAAAElFTkSuQmCC "
       id="image3442"
       x="120.04402"
       y="269.07138" />
    <path
       id="path18203"
       style="fill:#ff2a2a;stroke:none;stroke-width:0.264583px;stroke-linecap:butt;stroke-linejoin:miter;stroke-opacity:1"
       d="m 404.76526,235.77843 c -18.50619,-0.0168 -33.18608,11.57965 -33.18608,11.57965 0,0 -11.57788,-11.74523 -30.8498,-11.57604 -5.89956,0.0518 -12.65433,1.80373 -20.23391,6.29213 -22.21216,13.15335 -21.54093,43.81129 -5.63841,67.46874 15.9025,23.65747 52.36528,53.33112 52.36528,53.33112 0,0 35.77768,-29.28159 49.96026,-48.62133 14.18256,-19.33972 33.6848,-58.35757 8.65218,-72.79968 -7.18117,-4.14305 -14.37578,-5.66853 -21.06952,-5.67459 z" />
    <path
       style="fill:none;stroke:#000000;stroke-width:0.264583px;stroke-linecap:butt;stroke-linejoin:miter;stroke-opacity:1"
       d="m 294.91156,291.96863 c 48.62571,5.61348 109.165,4.69948 134.55129,23.0459 l 3.94669,-18.6959 c -37.17287,-9.39866 -90.1677,-7.74768 -135.38394,-11.52906 z"
       id="path3622"
       sodipodi:nodetypes="ccccc" />
    <path
       style="fill:none;stroke:#000000;stroke-width:0.264583px;stroke-linecap:butt;stroke-linejoin:miter;stroke-opacity:1"
       d="m 393.55402,229.02653 c -34.0566,14.76942 -57.93735,92.98713 -70.42672,135.75327 l -19.84953,1.28665 c 15.65836,-41.92978 32.1401,-85.70006 77.91247,-133.49867 z"
       id="path3624"
       sodipodi:nodetypes="ccccc" />
    <path
       style="fill:none;stroke:#000000;stroke-width:0.264583px;stroke-linecap:butt;stroke-linejoin:miter;stroke-opacity:1"
       d="m 358.449,231.86065 c 34.26276,55.37446 41.18484,109.52519 46.93916,151.73199 l 10.26776,-8.2823 c -8.69635,-43.36048 -13.28899,-83.93204 -43.57888,-141.9677 z"
       id="path3626"
       sodipodi:nodetypes="ccccc" />
    <path
       style="fill:#a7d279;stroke:none;stroke-width:0.999999px;stroke-linecap:butt;stroke-linejoin:miter;stroke-opacity:1;fill-opacity:1"
       d="m 2236.6641,994.50195 c 8.7053,30.78175 15.9021,60.53815 22.3808,89.80665 16.1331,-17.0048 30.7206,-33.7183 41.7969,-48.8223 3.8276,-5.2194 7.7606,-10.8565 11.7246,-16.7734 -21.9605,-9.9005 -47.5977,-17.7865 -75.9023,-24.21095 z"
       transform="scale(0.26458333)"
       id="path5270" />
    <path
       style="fill:#3ca542;stroke:none;stroke-width:0.999999px;stroke-linecap:butt;stroke-linejoin:miter;stroke-opacity:1;fill-opacity:1"
       d="m 2031.9375,967.97266 c -17.9449,44.23064 -33.9853,89.78714 -48.1484,133.11324 61.0196,63.4536 128.2265,118.1661 128.2265,118.1661 0,0 59.7864,-48.9857 115.6192,-103.2774 -8.278,-41.774 -18.4464,-85.0544 -31.7559,-129.49413 -50.2746,-8.56494 -106.483,-13.87888 -163.9414,-18.50781 z"
       transform="scale(0.26458333)"
       id="path5268" />
    <path
       style="fill:#a7d279;stroke:none;stroke-width:0.999999px;stroke-linecap:butt;stroke-linejoin:miter;stroke-opacity:1;fill-opacity:1"
       d="m 1883.1152,955.8457 c 7.3419,21.23552 17.7679,42.17828 30.9844,61.8398 8.028,11.9429 17.4687,24.2938 27.7559,36.7266 13.6579,-29.6504 28.5521,-59.59091 45.582,-89.93554 -35.1081,-2.69369 -70.1843,-5.40519 -104.3223,-8.63086 z"
       transform="scale(0.26458333)"
       id="path5266" />
    <path
       style="fill:#ff2a2a;stroke:none;stroke-width:0.999999px;stroke-linecap:butt;stroke-linejoin:miter;stroke-opacity:1"
       d="m 2120.2148,797.3008 c -27.2722,38.68925 -52.0485,86.42658 -74.2578,137.33984 45.9245,1.93675 91.6269,4.02813 135.6524,7.29102 -16.2349,-47.33827 -36.2721,-95.7241 -61.3946,-144.63086 z"
       transform="scale(0.26458333)"
       id="path5264" />
    <path
       style="fill:#a7d279;stroke:none;stroke-width:0.999999px;stroke-linecap:butt;stroke-linejoin:miter;stroke-opacity:1;fill-opacity:1"
       d="m 2011.8848,738.90432 c -22.2976,0.19578 -47.8274,6.81722 -76.4746,23.78125 -56.8539,33.66707 -73.9978,97.67802 -60.502,163.26367 42.583,3.06353 86.5993,5.12618 130.8945,6.99414 29.3751,-48.634 62.0846,-107.70447 105.1907,-158.49353 -18.4461,-26.10802 -72.6146,-35.45461 -99.1086,-35.54553 z"
       transform="scale(0.26458333)"
       id="path5262" />
    <path
       style="fill:#a7d279;stroke:none;stroke-width:0.999999px;stroke-linecap:butt;stroke-linejoin:miter;stroke-opacity:1;fill-opacity:1"
       d="m 2253.9102,738.89062 c -43.5766,-0.0395 -81.5269,16.95436 -103.9571,29.7754 31.0628,63.73369 54.0252,121.96263 71.7832,176.65429 43.7602,4.17145 85.2921,9.90027 123.0332,18.27539 37.1272,-73.83658 57.9373,-163.35499 -11.2265,-203.25781 -27.1415,-15.65877 -54.3337,-21.42436 -79.6328,-21.44727 z"
       transform="scale(0.26458333)"
       id="path4898" />
    <path
       id="path5083"
       style="fill:#4d4d4d;stroke:none;stroke-width:0.999999px;stroke-linecap:butt;stroke-linejoin:miter;stroke-opacity:1"
       d="M 2120.2148 797.30078 C 2092.9426 835.99003 2068.1663 883.72737 2045.957 934.64062 C 2091.8815 936.57737 2137.5839 938.66875 2181.6094 941.93164 C 2165.3745 894.59337 2145.3373 846.20754 2120.2148 797.30078 z "
       transform="scale(0.26458333)" />
    <path
       id="path5238"
       style="fill:#000000;stroke:none;stroke-width:0.264584px;stroke-linecap:butt;stroke-linejoin:miter;stroke-opacity:1"
       d="m 560.112,223.33555 c -3.56281,5.05432 -6.79956,11.29068 -9.70095,17.94194 5.99952,0.25301 11.97002,0.52622 17.72147,0.95248 -2.1209,-6.18422 -4.73854,-12.50529 -8.02052,-18.89442 z" />
    <path
       id="path5258"
       style="fill:#ff2a2a;stroke:none;stroke-width:0.264583px;stroke-linecap:butt;stroke-linejoin:miter;stroke-opacity:1"
       d="m 802.06968,195.49814 c -11.52964,-0.0105 -21.57066,4.48584 -27.50532,7.87808 8.2187,16.86287 14.29417,32.26927 18.99264,46.73978 11.57822,1.10369 22.56687,2.61944 32.55254,4.83536 9.82323,-19.53593 15.32924,-43.22101 -2.97035,-53.77863 -7.18119,-4.14305 -14.37579,-5.66853 -21.06951,-5.67459 z m -64.03589,0.004 c -5.89957,0.0518 -12.65433,1.80372 -20.2339,6.29212 -15.04259,8.90774 -19.57858,25.84397 -16.00782,43.19684 11.26675,0.81056 22.91273,1.35631 34.6325,1.85054 7.77216,-12.86775 16.42655,-28.49681 27.83171,-41.93475 -4.88053,-6.90775 -19.21262,-9.3807 -26.22249,-9.40475 z m 28.66232,15.45073 c -7.21577,10.23653 -13.77117,22.86703 -19.64738,36.33783 12.15086,0.51243 24.24295,1.06578 35.89136,1.92909 -4.29548,-12.52492 -9.59699,-25.32701 -16.24398,-38.26692 z m -62.73261,41.94834 c 1.94255,5.61856 4.70109,11.15967 8.19796,16.36178 2.12408,3.15989 4.62193,6.42773 7.34375,9.71724 3.61365,-7.845 7.55441,-15.76676 12.06024,-23.79544 -9.28902,-0.71271 -18.5696,-1.43012 -27.60195,-2.28358 z m 39.3759,3.20859 c -4.74792,11.70269 -8.99194,23.75618 -12.73926,35.21954 16.14477,16.78877 33.92659,31.26478 33.92659,31.26478 0,0 15.81849,-12.9608 30.59092,-27.32547 -2.19022,-11.05271 -4.88061,-22.50398 -8.40208,-34.26199 -13.30183,-2.26614 -28.17363,-3.67212 -43.37617,-4.89686 z m 54.16725,7.01921 c 2.30328,8.14434 4.20743,16.01738 5.92159,23.76134 4.26855,-4.49919 8.12816,-8.9213 11.05876,-12.91757 1.01272,-1.38096 2.05332,-2.87245 3.10213,-4.43796 -5.81038,-2.61951 -12.59355,-4.70601 -20.08248,-6.40581 z"
       sodipodi:nodetypes="scccsscscccccccccscccccccccccscc" />
    <path
       id="path5290"
       style="fill:#3ca542;stroke:none;stroke-width:0.999999px;stroke-linecap:butt;stroke-linejoin:miter;stroke-opacity:1;fill-opacity:1"
       d="M 2011.8848 738.9043 C 1989.5872 739.10008 1964.0574 745.72152 1935.4102 762.68555 C 1897.4843 785.14405 1877.2518 821.11305 1871.9746 862.03711 C 1903.7969 863.94278 1936.223 865.42473 1968.8066 866.79883 C 1991.7371 828.83474 2016.7014 784.51201 2047.0547 742.73242 C 2033.7631 740.12749 2021.1302 738.93602 2011.8848 738.9043 z "
       transform="scale(0.26458333)" />
    <path
       id="path5292"
       style="fill:#3ca542;stroke:none;stroke-width:0.999999px;stroke-linecap:butt;stroke-linejoin:miter;stroke-opacity:1;fill-opacity:1"
       d="M 2253.9102 738.89062 C 2240.9934 738.87892 2228.5904 740.38917 2216.9199 742.81836 C 2241.3298 795.65431 2260.215 844.73827 2275.3164 891.24805 C 2308.0735 894.37064 2339.581 898.36675 2369.1855 903.69141 C 2386.6045 846.38029 2384.6408 789.81788 2333.543 760.33789 C 2306.4015 744.67912 2279.2093 738.91353 2253.9102 738.89062 z "
       transform="scale(0.26458333)" />
    <path
       style="fill:none;stroke:#000000;stroke-width:0.264583px;stroke-linecap:butt;stroke-linejoin:miter;stroke-opacity:1"
       d="m 488.01152,272.70144 c 48.62571,5.61348 109.165,4.69948 134.55129,23.0459 l 3.94669,-18.6959 C 582.78695,217.06926 533.52631,247.55963 491.12556,265.52238 Z"
       id="path5489"
       sodipodi:nodetypes="ccccc" />
    <rect
       style="fill:#a7d279;fill-opacity:1;stroke:none;stroke-width:0.5;stroke-linecap:round;stroke-miterlimit:4;stroke-dasharray:none;stroke-dashoffset:0;stroke-opacity:1"
       id="rect3066"
       width="29.954681"
       height="4.5202231"
       x="434.20474"
       y="218.8541" />
    <rect
       y="214.33389"
       x="434.20474"
       height="4.5202231"
       width="29.954681"
       id="rect3068"
       style="fill:#3ca542;fill-opacity:1;stroke:none;stroke-width:0.5;stroke-linecap:round;stroke-miterlimit:4;stroke-dasharray:none;stroke-dashoffset:0;stroke-opacity:1" />
    <path
       id="path12228"
       style="fill:#a7d279;stroke:none;stroke-width:0.999999px;stroke-linecap:butt;stroke-linejoin:miter;stroke-opacity:1;fill-opacity:1"
       d="M 2031.9375 967.97266 C 2021.6486 993.33275 2012.0594 1019.0967 2003.0176 1044.6582 C 2078.5779 1050.4762 2153.534 1056.6229 2217.5508 1068.7656 C 2211.3592 1041.8513 2204.2394 1014.3957 2195.8789 986.48047 C 2145.6043 977.91553 2089.3959 972.60159 2031.9375 967.97266 z "
       transform="scale(0.26458333)" />
    <g
       id="g38314"
       transform="matrix(1.087483,-0.12452882,0.12452882,1.087483,-30.334179,2.5393164)"
       style="stroke-width:0.913585">
      <path
         style="fill:#4d4d4d;fill-opacity:1;stroke:none;stroke-width:0.241719px;stroke-linecap:butt;stroke-linejoin:miter;stroke-opacity:1"
         d="m 186.44024,123.646 c 1.79858,6.66983 3.3633,13.18048 4.78266,19.59261 4.26855,-4.49922 8.12816,-8.9213 11.05876,-12.91757 0.47662,-0.64995 0.97293,-1.39367 1.45984,-2.08875 -5.24222,-1.81631 -11.05945,-3.31769 -17.30126,-4.58629 z"
         id="path17379" />
      <path
         style="fill:#4d4d4d;fill-opacity:1;stroke:none;stroke-width:0.241719px;stroke-linecap:butt;stroke-linejoin:miter;stroke-opacity:1"
         d="m 129.37602,116.93476 c -4.0345,10.28351 -7.70901,20.73281 -10.98124,30.74284 16.14476,16.78877 33.92662,31.26475 33.92662,31.26475 0,0 15.81845,-12.9608 30.59088,-27.32545 -1.91518,-9.66488 -4.25016,-19.64928 -7.1515,-29.86227 -14.33446,-2.22417 -30.27042,-3.57087 -46.38476,-4.81987 z"
         id="path17377" />
      <path
         style="fill:#4d4d4d;fill-opacity:1;stroke:none;stroke-width:0.241719px;stroke-linecap:butt;stroke-linejoin:miter;stroke-opacity:1"
         d="m 93.606122,113.96442 c 1.721512,3.99142 3.83704,7.90847 6.35,11.64682 2.124078,3.1599 4.621898,6.42774 7.343718,9.71725 2.94556,-6.39461 6.12752,-12.84404 9.63663,-19.35697 -7.87963,-0.61269 -15.71315,-1.2506 -23.330348,-2.0071 z"
         id="path17375" />
      <path
         style="fill:#a7d279;fill-opacity:1;stroke:none;stroke-width:0.241719px;stroke-linecap:butt;stroke-linejoin:miter;stroke-opacity:1"
         d="m 154.49077,67.301101 c -6.23877,8.85055 -11.9834,19.492489 -17.22274,30.918017 10.58289,0.442913 21.13526,0.907336 31.40946,1.565804 -3.90475,-10.673397 -8.55906,-21.528272 -14.18672,-32.483821 z"
         id="path17373" />
      <path
         style="fill:#3ca542;fill-opacity:1;stroke:none;stroke-width:0.241719px;stroke-linecap:butt;stroke-linejoin:miter;stroke-opacity:1"
         d="m 125.82843,51.850387 c -5.89957,0.05178 -12.65433,1.803717 -20.2339,6.292109 -13.379719,7.923053 -18.441569,22.198568 -16.885792,37.468518 12.497862,1.019466 25.574652,1.634623 38.732512,2.193158 6.95412,-11.690429 14.75198,-24.934386 24.60935,-36.548695 -4.88054,-6.907741 -19.2123,-9.38104 -26.22217,-9.40509 z"
         id="path17371" />
      <path
         style="fill:#3ca542;fill-opacity:1;stroke:none;stroke-width:0.241719px;stroke-linecap:butt;stroke-linejoin:miter;stroke-opacity:1"
         d="m 189.86432,51.846762 c -11.52965,-0.01058 -21.57064,4.485825 -27.50529,7.878074 7.11057,14.589258 12.61411,28.086659 17.01239,40.832644 13.25361,1.08058 25.85865,2.61408 37.22513,5.01261 7.96734,-18.235798 10.87905,-38.505262 -5.66272,-48.04873 -7.18119,-4.143057 -14.37579,-5.668539 -21.06951,-5.674598 z"
         id="path17201" />
      <path
         id="path17432"
         style="fill:#a7d279;fill-opacity:1;stroke:none;stroke-width:0.241719px;stroke-linecap:butt;stroke-linejoin:miter;stroke-opacity:1"
         d="m 92.047541,73.063038 c -3.115707,6.717559 -4.159938,14.488609 -3.338803,22.547976 12.497862,1.019466 25.574652,1.634623 38.732512,2.193158 4.25815,-7.158302 8.83954,-14.897682 14.00948,-22.490112 -16.86021,-1.197954 -33.5829,-1.892406 -49.403189,-2.251022 z m 78.605039,4.865343 c 3.32303,7.826296 6.20892,15.355464 8.71884,22.629099 13.25361,1.08058 25.85865,2.61408 37.22513,5.01261 2.8073,-6.425407 4.95966,-13.096902 5.88179,-19.4691 -16.25799,-3.551661 -33.85669,-6.204479 -51.82576,-8.172609 z" />
      <path
         id="path26262"
         style="fill:#000000;fill-opacity:1;stroke:none;stroke-width:0.241719px;stroke-linecap:butt;stroke-linejoin:miter;stroke-opacity:1"
         d="m 120.88456,140.215 c -0.85347,2.50783 -1.68445,4.99899 -2.48978,7.4626 16.14476,16.78877 33.92662,31.26475 33.92662,31.26475 0,0 15.81845,-12.9608 30.59088,-27.32545 -0.3121,-1.57501 -0.65405,-3.17145 -0.98909,-4.76303 -18.19042,-3.39418 -39.64966,-4.99718 -61.03863,-6.63887 z" />
    </g>
    <path
       sodipodi:nodetypes="cccccc"
       inkscape:connector-curvature="0"
       id="path18323"
       d="m 136.90909,101.60714 c -17.70601,16.84518 -35.71205,35.05028 -56.632729,36.35574 -7.431586,2.72029 -32.230575,8.83106 -51.495652,-7.39054 6.509368,15.32229 21.097883,27.17863 35.805778,30.0882 6.841184,1.35339 14.531929,2.01634 22.765061,1.49694 32.086922,-11.78478 30.562412,-37.76024 49.557542,-60.55034 z"
       style="fill:#e60ec9;fill-opacity:1;stroke:none;stroke-width:2;stroke-linecap:butt;stroke-linejoin:miter;stroke-miterlimit:4;stroke-dasharray:none;stroke-opacity:1" />
    <path
       inkscape:connector-curvature="0"
       id="path18325"
       d="m 206.40832,58.443519 c -15.33035,2.396379 -32.63721,10.698826 -55.12485,30.137273 -4.80367,3.997858 -9.57864,8.463899 -14.37438,13.026348 -19.00512,22.79252 -17.47679,48.77354 -49.568223,60.56042 18.870073,-1.19063 40.602523,-8.62145 61.581733,-28.39967 6.68236,-5.946 13.62863,-12.82077 20.7982,-19.52277 5.66349,-9.58902 6.17516,-21.046159 12.04384,-33.155351 7.37624,-15.219892 19.28901,-20.820489 24.64368,-22.64625 z"
       style="fill:#e33208;fill-opacity:1;stroke:none;stroke-width:2;stroke-linecap:butt;stroke-linejoin:miter;stroke-miterlimit:4;stroke-dasharray:none;stroke-opacity:1" />
    <path
       inkscape:connector-curvature="0"
       id="path18327"
       d="m 238.63061,76.14513 c -6.98022,-0.222447 -13.70113,1.264838 -19.05544,3.8248 -4.48984,2.146653 -8.46456,4.90354 -11.19269,6.989506 5.81404,-2.103308 11.72884,-3.081117 17.73469,-2.480632 18.52097,2.57578 31.89882,22.157116 27.65068,39.805686 0.51197,3.95517 0.5704,10.41428 -1.20889,20.54328 -1.70017,9.67818 -7.02967,18.58082 -14.05633,24.92328 22.38085,-7.05594 35.46486,-25.78079 36.94181,-48.05964 0.50316,-7.58814 -0.13957,-14.66954 -1.68786,-21.14428 -0.19286,-0.44391 -0.39131,-0.878017 -0.59227,-1.308828 -0.16014,-0.3417 -0.32321,-0.679141 -0.48881,-1.012118 -0.0126,-0.02698 -0.0261,-0.05493 -0.0394,-0.08198 -0.004,-0.0087 -0.0102,-0.01701 -0.0125,-0.0262 -7.76623,-15.519 -21.3081,-21.568879 -33.99217,-21.973049 z"
       style="fill:#f3e40b;fill-opacity:1;stroke:none;stroke-width:2;stroke-linecap:butt;stroke-linejoin:miter;stroke-miterlimit:4;stroke-dasharray:none;stroke-opacity:1" />
    <path
       sodipodi:nodetypes="ccccccccc"
       inkscape:connector-curvature="0"
       id="path18331"
       d="m 219.61906,57.73265 c -4.28504,-0.193042 -8.66111,-3.09e-4 -13.21074,0.710871 -5.35463,1.825764 -17.26744,7.426358 -24.64366,22.646267 -5.86854,12.108898 -6.3804,23.566422 -12.04381,33.155332 12.25406,-11.45495 25.17466,-22.393883 38.6452,-27.272802 2.72855,-2.087428 6.71088,-4.851586 11.20947,-7.002435 15.57616,-7.447132 42.71155,-5.817166 54.18149,20.577207 -5.37872,-22.482013 -23.88115,-37.740524 -41.36555,-41.199349 -4.2227,-0.835351 -8.45153,-1.420357 -12.7724,-1.615089 z"
       style="fill:#ffa101;fill-opacity:1;stroke:none;stroke-width:2;stroke-linecap:butt;stroke-linejoin:miter;stroke-miterlimit:4;stroke-dasharray:none;stroke-opacity:1" />
  </g>
</svg>
