<?xml version="1.0" encoding="UTF-8" standalone="no"?>
<!-- Created with Inkscape (http://www.inkscape.org/) -->

<svg
   xmlns:dc="http://purl.org/dc/elements/1.1/"
   xmlns:cc="http://creativecommons.org/ns#"
   xmlns:rdf="http://www.w3.org/1999/02/22-rdf-syntax-ns#"
   xmlns:svg="http://www.w3.org/2000/svg"
   xmlns="http://www.w3.org/2000/svg"
   xmlns:xlink="http://www.w3.org/1999/xlink"
   xmlns:sodipodi="http://sodipodi.sourceforge.net/DTD/sodipodi-0.dtd"
   xmlns:inkscape="http://www.inkscape.org/namespaces/inkscape"
   width="210mm"
   height="297mm"
   viewBox="0 0 210 297"
   version="1.1"
   id="svg2650"
   sodipodi:docname="workfile.svg"
   inkscape:version="0.92.4 5da689c313, 2019-01-14">
  <defs
     id="defs2644">
    <linearGradient
       inkscape:collect="always"
       id="linearGradient3509">
      <stop
         style="stop-color:#ead481;stop-opacity:1"
         offset="0"
         id="stop3505" />
      <stop
         style="stop-color:#ffffff;stop-opacity:1"
         offset="1"
         id="stop3507" />
    </linearGradient>
    <linearGradient
       inkscape:collect="always"
       xlink:href="#linearGradient3509"
       id="linearGradient3515"
       x1="44.431313"
       y1="208.59824"
       x2="198.8306"
       y2="54.669411"
       gradientUnits="userSpaceOnUse" />
  </defs>
  <sodipodi:namedview
     id="base"
     pagecolor="#ffffff"
     bordercolor="#666666"
     borderopacity="1.0"
     inkscape:pageopacity="0.0"
     inkscape:pageshadow="2"
     inkscape:zoom="0.7"
     inkscape:cx="307.06456"
     inkscape:cy="-44.167498"
     inkscape:document-units="mm"
     inkscape:current-layer="layer1"
     showgrid="false"
     inkscape:window-width="3840"
     inkscape:window-height="2050"
     inkscape:window-x="0"
     inkscape:window-y="34"
     inkscape:window-maximized="1" />
  <metadata
     id="metadata2647">
    <rdf:RDF>
      <cc:Work
         rdf:about="">
        <dc:format>image/svg+xml</dc:format>
        <dc:type
           rdf:resource="http://purl.org/dc/dcmitype/StillImage" />
      </cc:Work>
    </rdf:RDF>
  </metadata>
  <g
     inkscape:label="Ebene 1"
     inkscape:groupmode="layer"
     id="layer1">
    <rect
       style="opacity:1;vector-effect:none;fill:url(#linearGradient3515);fill-opacity:1;stroke:none;stroke-width:7.00000048;stroke-linecap:round;stroke-linejoin:round;stroke-miterlimit:4;stroke-dasharray:none;stroke-dashoffset:264.56692505;stroke-opacity:1;paint-order:stroke markers fill"
       id="rect3445"
       width="187.66119"
       height="187.66119"
       x="11.169408"
       y="54.669411"
       inkscape:export-xdpi="34.649681"
       inkscape:export-ydpi="34.649681"
       inkscape:export-filename="/home/betalars/g3460.png" />
    <g
       id="g3460"
       transform="translate(15.299465,-47.947066)"
       inkscape:export-xdpi="34.649681"
       inkscape:export-ydpi="34.649681"
       inkscape:export-filename="/home/betalars/g3460.png">
      <path
         sodipodi:nodetypes="ccscccsc"
         inkscape:connector-curvature="0"
         id="path5754-3"
         d="m 166.82287,197.58475 -7.09465,1.46709 c -0.46935,6.39402 -2.05333,11.23069 -4.71806,15.13396 -3.12644,4.57957 -7.87762,8.07859 -14.85129,11.03499 -1.41832,0.60123 -2.8653,1.06055 -4.32739,1.39888 l 12.95683,2.15232 c 4.98846,-2.83204 9.03369,-6.2886 12.00341,-10.63862 3.77576,-5.53071 5.69276,-12.33254 6.03115,-20.54862 z"
         style="fill:#ffa100;fill-opacity:1;stroke:none;stroke-width:0.26458332px;stroke-linecap:butt;stroke-linejoin:miter;stroke-opacity:1" />
      <path
         sodipodi:nodetypes="cccccccccc"
         inkscape:connector-curvature="0"
         id="path5756-6"
         transform="scale(0.26458333)"
         d="m 358.89258,830.85352 c 8.08739,8.22318 17.92751,17.33036 27.96289,24.39843 18.15492,12.78732 56.44799,30.51579 100.63672,30.64063 17.29855,0.0559 35.43917,-2.78556 53.00195,-10.23047 7.90735,-3.35224 15.33381,-6.98892 22.28906,-10.9375 l -48.97265,-8.13672 c -8.66667,2.00531 -17.47523,2.8759 -26.23633,2.84766 h -0.008 c -29.28978,-0.0827 -58.26815,-10.85541 -75.15625,-19.69141 z"
         style="fill:#f73508;fill-opacity:1;stroke:none;stroke-width:1.00000012px;stroke-linecap:butt;stroke-linejoin:miter;stroke-opacity:1" />
      <path
         sodipodi:nodetypes="cccc"
         inkscape:connector-curvature="0"
         id="path5740"
         d="M 75.271017,216.56016 15.859604,175.40634 c -2.70049,-10.13461 8.958485,-27.37458 20.646948,-28.00349 z"
         style="fill:#0070ff;fill-opacity:1;stroke:none;stroke-width:0.26458332px;stroke-linecap:butt;stroke-linejoin:miter;stroke-opacity:1" />
      <path
         style="fill:#13d5de;fill-opacity:1;stroke:none;stroke-width:0.26458332px;stroke-linecap:butt;stroke-linejoin:miter;stroke-opacity:1"
         d="M 75.271017,216.56016 36.506552,147.40285 c 1.936425,-14.01578 33.952199,-22.45989 40.612678,-16.56523 z"
         id="path5742"
         inkscape:connector-curvature="0"
         sodipodi:nodetypes="cccc" />
      <path
         style="fill:#9100ff;fill-opacity:1;stroke:none;stroke-width:0.26458332px;stroke-linecap:butt;stroke-linejoin:miter;stroke-opacity:1"
         d="M 75.271017,216.56016 7.5720761,209.40084 c -5.9233576,-4.68633 -4.0148435,-30.90996 8.2875279,-33.9945 z"
         id="path5744"
         inkscape:connector-curvature="0"
         sodipodi:nodetypes="cccc" />
      <path
         sodipodi:nodetypes="cccc"
         inkscape:connector-curvature="0"
         id="path5746"
         d="M 75.271017,216.56016 27.540172,230.8883 C 14.779935,235.86047 -0.38941545,220.19042 7.5720761,209.40084 Z"
         style="fill:#e40ff0;fill-opacity:1;stroke:none;stroke-width:0.26458332px;stroke-linecap:butt;stroke-linejoin:miter;stroke-opacity:1" />
      <path
         sodipodi:nodetypes="cccc"
         inkscape:connector-curvature="0"
         id="path5748"
         d="m 75.271017,216.56016 1.848213,-85.72254 c 10.684624,-10.40914 38.80421,-4.59014 42.31854,2.76254 z"
         style="fill:#7de31c;fill-opacity:1;stroke:none;stroke-width:0.26458332px;stroke-linecap:butt;stroke-linejoin:miter;stroke-opacity:1" />
      <path
         style="fill:#c6f30c;fill-opacity:1;stroke:none;stroke-width:0.26458332px;stroke-linecap:butt;stroke-linejoin:miter;stroke-opacity:1"
         d="m 75.271017,216.56016 44.166753,-82.96 c 19.81626,-6.03508 35.62155,10.83399 36.83375,19.41448 z"
         id="path5750"
         inkscape:connector-curvature="0"
         sodipodi:nodetypes="cccc" />
      <path
         sodipodi:nodetypes="cccc"
         inkscape:connector-curvature="0"
         id="path5752"
         d="m 75.271017,216.56016 81.000503,-63.54552 c 12.97929,2.32109 21.09094,26.98586 15.46616,43.59691 z"
         style="fill:#f6f30b;fill-opacity:1;stroke:none;stroke-width:0.26458332px;stroke-linecap:butt;stroke-linejoin:miter;stroke-opacity:1" />
      <path
         style="fill:#ffa100;fill-opacity:1;stroke:none;stroke-width:0.26458332px;stroke-linecap:butt;stroke-linejoin:miter;stroke-opacity:1"
         d="M 75.271367,216.55981 171.73812,196.6112 c 2.01848,27.93248 -30.94734,12.58146 -36.2466,29.95227 z"
         id="path5754"
         inkscape:connector-curvature="0"
         sodipodi:nodetypes="cccc" />
      <path
         sodipodi:nodetypes="cccczczzcc"
         inkscape:connector-curvature="0"
         id="path5756"
         d="M 75.271017,216.56016 27.540172,230.8883 c 0,0 -4.04916,7.7555 1.485755,15.13503 5.534557,7.37953 13.131119,9.22441 26.47946,8.79024 13.348251,-0.43443 20.863112,1.38957 29.680824,-7.54224 8.81789,-8.93189 9.712817,-13.72809 9.712817,-13.72809 0,0 0.06146,0.30717 7.054012,2.76728 6.99381,2.46071 12.70915,3.09666 21.76497,-0.3809 9.05581,-3.47755 11.77351,-9.3658 11.77351,-9.3658 z"
         style="fill:#f73508;fill-opacity:1;stroke:none;stroke-width:0.26458332px;stroke-linecap:butt;stroke-linejoin:miter;stroke-opacity:1" />
      <path
         inkscape:connector-curvature="0"
         id="path3443"
         d="m 89.485863,207.41964 c 0.755952,-0.18899 47.341517,-34.67931 47.341517,-34.67931 l -25.98586,-1.79539 -23.71801,33.73437 z"
         style="fill:#f6f30b;fill-opacity:1;stroke:none;stroke-width:0.26458332px;stroke-linecap:butt;stroke-linejoin:miter;stroke-opacity:1" />
      <path
         inkscape:connector-curvature="0"
         id="path3463"
         d="m 127.028,229.82414 c 4.15848,0.0134 8.44411,-0.66844 12.56116,-2.41367 14.63839,-6.20579 21.50718,-15.46769 21.70514,-32.59293 0.19764,-17.12512 -8.69007,-30.82311 -23.47011,-33.57802 -14.77992,-2.75473 -26.55022,2.77002 -44.392486,20.65212 0,0 -14.297911,14.87099 -18.692847,18.93202 -4.395056,4.06102 -12.289378,13.03808 -22.372238,12.6786 -13.965178,-0.4985 -21.378439,-14.54757 -17.652255,-25.01183 3.726193,-10.4644 17.232858,-16.02173 26.893142,-11.53357 9.972287,4.63328 15.740915,14.03808 15.740915,14.03808 l 11.951981,-11.72235 c 0,0 -6.077626,-7.39555 -11.688739,-11.34747 -5.611053,-3.95201 -22.379736,-11.21198 -37.018137,-5.00619 -14.638382,6.20577 -21.507179,15.46768 -21.705133,32.59279 -0.197644,17.12519 8.690712,30.82325 23.470638,33.57815 14.780055,2.75487 26.549672,-2.77001 44.391931,-20.65226 0,0 14.297968,-14.87031 18.692958,-18.93141 4.39501,-4.06095 12.28935,-13.03862 22.3721,-12.67915 13.96521,0.49851 21.37843,14.54815 17.6523,25.01252 -3.72618,10.46424 -17.23282,16.02119 -26.89311,11.53282 -9.97223,-4.6332 -15.74096,-14.03802 -15.74096,-14.03802 l -11.95193,11.72236 c 0,0 6.077616,7.39555 11.68873,11.34755 4.0329,2.84054 13.8299,7.38984 24.45695,7.41986 z"
         style="fill:#ffffff;stroke:none;stroke-width:0.26458332px;stroke-linecap:butt;stroke-linejoin:miter;stroke-opacity:1" />
    </g>
    <path
       style="opacity:1;vector-effect:none;fill:#333333;fill-opacity:1;stroke:none;stroke-width:26.45669365;stroke-linecap:round;stroke-linejoin:round;stroke-miterlimit:4;stroke-dasharray:none;stroke-dashoffset:264.56692505;stroke-opacity:1;paint-order:stroke markers fill"
       d="M -158.57227,-20.337891 V 1428.2344 H 1207.1426 V -20.337891 Z M 396.84961,213.40234 A 347.85714,347.85714 0 0 1 744.70703,561.25977 347.85714,347.85714 0 0 1 396.84961,909.11719 347.85714,347.85714 0 0 1 48.994141,561.25977 347.85714,347.85714 0 0 1 396.84961,213.40234 Z"
       id="rect3464"
       inkscape:connector-curvature="0"
       transform="scale(0.26458333)" />
  </g>
</svg>
