<?xml version="1.0" encoding="UTF-8" standalone="no"?>
<!-- Created with Inkscape (http://www.inkscape.org/) -->

<svg
   xmlns:dc="http://purl.org/dc/elements/1.1/"
   xmlns:cc="http://creativecommons.org/ns#"
   xmlns:rdf="http://www.w3.org/1999/02/22-rdf-syntax-ns#"
   xmlns:svg="http://www.w3.org/2000/svg"
   xmlns="http://www.w3.org/2000/svg"
   xmlns:xlink="http://www.w3.org/1999/xlink"
   xmlns:sodipodi="http://sodipodi.sourceforge.net/DTD/sodipodi-0.dtd"
   xmlns:inkscape="http://www.inkscape.org/namespaces/inkscape"
   width="297mm"
   height="162mm"
   viewBox="0 0 297 162"
   version="1.1"
   id="svg8"
   inkscape:version="0.92.4 5da689c313, 2019-01-14"
   sodipodi:docname="autism_prode_golden_iterations.svg">
  <defs
     id="defs2">
    <linearGradient
       id="linearGradient2426"
       inkscape:collect="always">
      <stop
         id="stop2422"
         offset="0"
         style="stop-color:#fff5d4;stop-opacity:1" />
      <stop
         id="stop2424"
         offset="1"
         style="stop-color:#ffce4b;stop-opacity:1" />
    </linearGradient>
    <clipPath
       clipPathUnits="userSpaceOnUse"
       id="clipPath2269">
      <path
         inkscape:connector-curvature="0"
         id="path2271"
         d="m 75.901759,158.79875 c -4.04763,0.0303 -10.336186,0.53719 -14.338144,1.65933 -9.237776,2.59025 -17.134665,6.5517 -23.457482,12.00908 1.75e-4,-2.7e-4 2.65e-4,-7.9e-4 5.29e-4,-0.001 -11.208462,9.67374 -17.448937,24.06545 -17.29765,43.97354 0.07278,9.57617 2.390155,18.80249 6.350515,26.91206 0.02463,0.0189 0.04926,0.0365 0.0739,0.0553 -0.02453,-0.0185 -0.04937,-0.0357 -0.0739,-0.0543 7.455762,15.26615 22.959406,26.56671 38.104651,28.74294 7.044616,1.01229 14.917515,1.27534 23.280225,0.30437 0.01521,-0.004 0.0298,-0.009 0.045,-0.0134 -0.01871,0.008 -0.0366,0.0163 -0.0553,0.0243 19.167047,-2.22562 40.916587,-10.96425 61.236057,-32.24608 6.49119,-6.41817 13.20147,-13.79687 20.14864,-21.01164 11.87394,-12.33136 24.45525,-24.1726 37.92172,-29.86742 0.006,-0.005 0.013,-0.0103 0.0191,-0.0155 5.81141,-2.45455 11.78565,-3.76756 17.93741,-3.47782 19.01337,1.63153 33.69761,20.8694 30.31494,39.0834 -0.57086,3.07377 -1.65304,6.11962 -3.31917,9.04544 -7.92136,13.91037 -23.17617,19.01482 -36.8546,18.20354 -0.002,-9e-5 -0.003,1e-4 -0.005,0 -6.23728,-0.37344 -12.1454,-1.97651 -16.87907,-4.5377 -10.61949,-5.74577 -21.32742,-14.76937 -27.34872,-20.51141 l -13.67565,13.45964 c 0.64921,0.5904 1.34736,1.21496 2.08721,1.86759 0.19872,0.10145 0.41436,0.20805 0.6227,0.31264 -0.21963,-0.10277 -0.4358,-0.20665 -0.64544,-0.31368 4.46342,3.93725 10.34847,8.81119 14.81357,12.21114 7.83619,5.96695 37.44763,26.24512 63.06023,19.06343 1.72909,-0.48483 3.40114,-1.03783 5.02502,-1.64537 0.0202,-0.0202 0.0423,-0.0432 0.0625,-0.0635 -0.0208,0.0209 -0.0411,0.0426 -0.062,0.0635 22.43033,-8.39142 34.76018,-28.17655 35.07021,-50.96071 0.10571,-7.76025 -0.92934,-14.94266 -2.85461,-21.45812 -0.22035,-0.44205 -0.44596,-0.87347 -0.67384,-1.30173 -0.18153,-0.33965 -0.36576,-0.67516 -0.55245,-1.00563 -0.014,-0.0268 -0.0295,-0.0542 -0.0444,-0.0811 -0.004,-0.006 -0.008,-0.0131 -0.0109,-0.0202 0.44019,0.77593 0.86807,1.57828 1.28209,2.40864 -6.68758,-22.62339 -26.3625,-37.18104 -44.36681,-39.76812 -4.34826,-0.6248 -8.68912,-0.99398 -13.10307,-0.96066 -4.37734,0.0332 -8.82704,0.46415 -13.42554,1.43298 -15.49497,3.26457 -32.68708,12.65383 -54.56204,33.6703 -4.68108,4.33199 -9.30787,9.13975 -13.95057,14.04669 -17.141,18.1171 -34.51484,37.63635 -55.765588,40.08902 -2.063279,0.23808 -4.162208,0.32042 -6.301939,0.21963 -13.171728,-1.13026 -24.266123,-10.7106 -28.716073,-22.54643 -3.057544,-8.13239 -2.978663,-17.32934 1.720826,-25.5819 3.671517,-6.4474 8.921634,-10.99668 14.856973,-13.94902 0.0694,-0.0465 0.143005,-0.0938 0.213424,-0.14056 -0.06837,0.049 -0.136477,0.0993 -0.205671,0.14573 12.71861,-6.32648 28.594111,-5.29505 38.903038,0.28267 10.74597,5.81423 20.98669,15.12683 26.63714,20.75584 l 13.98416,-13.76454 c -4.30684,-4.09455 -10.66722,-9.73203 -16.49615,-14.01723 -0.67322,-0.4949 -1.5762,-1.16907 -2.51148,-1.86087 -8.3432,-6.1714 -26.557588,-19.01858 -46.218948,-18.86698 z m 195.179821,33.9881 c 0.0601,0.0823 0.12004,0.1645 0.17981,0.24754 -0.0597,-0.0831 -0.11972,-0.16513 -0.17981,-0.24754 z m 0.7493,1.05834 c 0.0683,0.0995 0.13581,0.20068 0.2036,0.30127 -0.0678,-0.10058 -0.13534,-0.20168 -0.2036,-0.30127 z m 0.6227,0.93534 c 0.0664,0.10225 0.13353,0.20313 0.19947,0.30644 -0.0659,-0.10323 -0.13304,-0.2042 -0.19947,-0.30644 z m 0.73432,1.16685 c 0.063,0.10369 0.12605,0.20793 0.18862,0.31265 -0.0626,-0.10463 -0.12554,-0.20897 -0.18862,-0.31265 z"
         style="fill:#03f4fd;fill-opacity:1;stroke:none;stroke-width:1.99999964;stroke-linecap:butt;stroke-linejoin:miter;stroke-miterlimit:4;stroke-dasharray:none;stroke-opacity:1" />
    </clipPath>
    <clipPath
       clipPathUnits="userSpaceOnUse"
       id="clipPath2283">
      <path
         style="fill:#03f4fd;fill-opacity:1;stroke:none;stroke-width:1.99999964;stroke-linecap:butt;stroke-linejoin:miter;stroke-miterlimit:4;stroke-dasharray:none;stroke-opacity:1"
         d="m 75.901759,158.79875 c -4.04763,0.0303 -10.336186,0.53719 -14.338144,1.65933 -9.237776,2.59025 -17.134665,6.5517 -23.457482,12.00908 1.75e-4,-2.7e-4 2.65e-4,-7.9e-4 5.29e-4,-0.001 -11.208462,9.67374 -17.448937,24.06545 -17.29765,43.97354 0.07278,9.57617 2.390155,18.80249 6.350515,26.91206 0.02463,0.0189 0.04926,0.0365 0.0739,0.0553 -0.02453,-0.0185 -0.04937,-0.0357 -0.0739,-0.0543 7.455762,15.26615 22.959406,26.56671 38.104651,28.74294 7.044616,1.01229 14.917515,1.27534 23.280225,0.30437 0.01521,-0.004 0.0298,-0.009 0.045,-0.0134 -0.01871,0.008 -0.0366,0.0163 -0.0553,0.0243 19.167047,-2.22562 40.916587,-10.96425 61.236057,-32.24608 6.49119,-6.41817 13.20147,-13.79687 20.14864,-21.01164 11.87394,-12.33136 24.45525,-24.1726 37.92172,-29.86742 0.006,-0.005 0.013,-0.0103 0.0191,-0.0155 5.81141,-2.45455 11.78565,-3.76756 17.93741,-3.47782 19.01337,1.63153 33.69761,20.8694 30.31494,39.0834 -0.57086,3.07377 -1.65304,6.11962 -3.31917,9.04544 -7.92136,13.91037 -23.17617,19.01482 -36.8546,18.20354 -0.002,-9e-5 -0.003,1e-4 -0.005,0 -6.23728,-0.37344 -12.1454,-1.97651 -16.87907,-4.5377 -10.61949,-5.74577 -21.32742,-14.76937 -27.34872,-20.51141 l -13.67565,13.45964 c 0.64921,0.5904 1.34736,1.21496 2.08721,1.86759 0.19872,0.10145 0.41436,0.20805 0.6227,0.31264 -0.21963,-0.10277 -0.4358,-0.20665 -0.64544,-0.31368 4.46342,3.93725 10.34847,8.81119 14.81357,12.21114 7.83619,5.96695 37.44763,26.24512 63.06023,19.06343 1.72909,-0.48483 3.40114,-1.03783 5.02502,-1.64537 0.0202,-0.0202 0.0423,-0.0432 0.0625,-0.0635 -0.0208,0.0209 -0.0411,0.0426 -0.062,0.0635 22.43034,-8.39142 34.76019,-28.17655 35.0702,-50.96071 0.10573,-7.76025 -0.92932,-14.94266 -2.85459,-21.45812 -0.22037,-0.44205 -0.44598,-0.87347 -0.67384,-1.30173 -0.18153,-0.33965 -0.36576,-0.67516 -0.55245,-1.00563 -0.014,-0.0268 -0.0295,-0.0542 -0.0444,-0.0811 -0.004,-0.006 -0.008,-0.0131 -0.0109,-0.0202 0.44019,0.77593 0.86807,1.57828 1.28209,2.40864 -6.68758,-22.62339 -26.3625,-37.18104 -44.36681,-39.76812 -4.34826,-0.6248 -8.68912,-0.99398 -13.10307,-0.96066 -4.37735,0.0332 -8.82704,0.46415 -13.42555,1.43298 -15.49496,3.26457 -32.68708,12.65383 -54.56203,33.6703 -4.68108,4.33199 -9.30787,9.13975 -13.95057,14.04669 -17.14101,18.1171 -34.51484,37.63635 -55.765591,40.08902 -2.063279,0.23808 -4.162208,0.32042 -6.301939,0.21963 -13.171728,-1.13026 -24.266122,-10.7106 -28.716073,-22.54643 -3.057543,-8.13239 -2.978663,-17.32934 1.720826,-25.5819 3.671518,-6.4474 8.921634,-10.99668 14.856974,-13.94902 0.0694,-0.0465 0.143004,-0.0938 0.213423,-0.14056 -0.06837,0.049 -0.136477,0.0993 -0.205671,0.14573 12.718611,-6.32648 28.594111,-5.29505 38.903031,0.28267 10.74597,5.81423 20.9867,15.12683 26.63715,20.75584 l 13.98416,-13.76454 c -4.3069,-4.09447 -10.66728,-9.73195 -16.49621,-14.01715 -0.67322,-0.4949 -1.5762,-1.16907 -2.51148,-1.86087 -8.3432,-6.1714 -26.557586,-19.01858 -46.218946,-18.86698 z m 195.179821,33.9881 c 0.0601,0.0823 0.12004,0.1645 0.17981,0.24754 -0.0597,-0.0831 -0.11972,-0.16513 -0.17981,-0.24754 z m 0.7493,1.05834 c 0.0683,0.0995 0.13581,0.20068 0.2036,0.30127 -0.0678,-0.10058 -0.13534,-0.20168 -0.2036,-0.30127 z m 0.6227,0.93534 c 0.0664,0.10225 0.13353,0.20313 0.19947,0.30644 -0.0659,-0.10323 -0.13304,-0.2042 -0.19947,-0.30644 z m 0.73432,1.16685 c 0.063,0.10369 0.12605,0.20793 0.18862,0.31265 -0.0626,-0.10463 -0.12554,-0.20897 -0.18862,-0.31265 z"
         id="path2285"
         inkscape:connector-curvature="0" />
    </clipPath>
    <radialGradient
       inkscape:collect="always"
       xlink:href="#linearGradient2426"
       id="radialGradient2400"
       cx="573.74762"
       cy="318.91116"
       fx="573.74762"
       fy="318.91116"
       r="169.01785"
       gradientTransform="matrix(0.52456728,0.2596088,-0.26780802,0.54113461,-371.01868,-264.14045)"
       gradientUnits="userSpaceOnUse" />
    <radialGradient
       inkscape:collect="always"
       xlink:href="#linearGradient2426"
       id="radialGradient2420"
       gradientUnits="userSpaceOnUse"
       gradientTransform="matrix(0.52456728,0.2596088,-0.26780802,0.54113461,-372.62229,-16.237187)"
       cx="573.74762"
       cy="318.91116"
       fx="573.74762"
       fy="318.91116"
       r="169.01785" />
    <linearGradient
       inkscape:collect="always"
       xlink:href="#linearGradient2426"
       id="linearGradient2528"
       x1="253.78711"
       y1="601.15039"
       x2="439.85156"
       y2="601.15039"
       gradientUnits="userSpaceOnUse"
       gradientTransform="matrix(0.34080275,0,0,0.34080275,25.683333,172.83586)" />
    <linearGradient
       inkscape:collect="always"
       xlink:href="#linearGradient2426"
       id="linearGradient2562"
       gradientUnits="userSpaceOnUse"
       gradientTransform="matrix(0.34080275,0,0,0.34080275,29.157837,15.414108)"
       x1="253.78711"
       y1="601.15039"
       x2="439.85156"
       y2="601.15039" />
    <radialGradient
       inkscape:collect="always"
       xlink:href="#linearGradient2426"
       id="radialGradient2584"
       cx="272.77963"
       cy="243.369"
       fx="272.77963"
       fy="243.369"
       r="148.92625"
       gradientTransform="matrix(0.88007715,2.2453878,-1.0915933,0.42784868,298.37248,-449.25055)"
       gradientUnits="userSpaceOnUse" />
    <radialGradient
       inkscape:collect="always"
       xlink:href="#linearGradient2426"
       id="radialGradient2604"
       cx="215.2001"
       cy="219.78159"
       fx="215.2001"
       fy="219.78159"
       r="26.920624"
       gradientTransform="matrix(1,0,0,0.97694979,0,5.0660115)"
       gradientUnits="userSpaceOnUse" />
    <radialGradient
       inkscape:collect="always"
       xlink:href="#linearGradient2426"
       id="radialGradient2625"
       cx="276.94968"
       cy="1240.8256"
       fx="276.94968"
       fy="1240.8256"
       r="148.92825"
       gradientTransform="matrix(0.32470307,0.53210465,-0.1652617,0.10084667,190.54895,89.058124)"
       gradientUnits="userSpaceOnUse" />
    <radialGradient
       inkscape:collect="always"
       xlink:href="#linearGradient2426"
       id="radialGradient2629"
       gradientUnits="userSpaceOnUse"
       gradientTransform="matrix(-0.32470307,-0.53210465,0.1652617,-0.10084667,103.46,662.49467)"
       cx="276.94968"
       cy="1240.8256"
       fx="276.94968"
       fy="1240.8256"
       r="148.92825" />
    <radialGradient
       inkscape:collect="always"
       xlink:href="#linearGradient2426"
       id="radialGradient2679"
       cx="-29.61199"
       cy="-186.73296"
       fx="-29.61199"
       fy="-186.73296"
       r="147.80003"
       gradientTransform="matrix(1.4160208,1.7344129,-0.61463987,0.5018083,136.93449,182.32394)"
       gradientUnits="userSpaceOnUse" />
  </defs>
  <sodipodi:namedview
     id="base"
     pagecolor="#ffffff"
     bordercolor="#666666"
     borderopacity="1.0"
     inkscape:pageopacity="0.0"
     inkscape:pageshadow="2"
     inkscape:zoom="0.49497475"
     inkscape:cx="417.97779"
     inkscape:cy="639.79427"
     inkscape:document-units="mm"
     inkscape:current-layer="layer1"
     showgrid="false"
     inkscape:snap-global="true"
     showguides="false"
     inkscape:window-width="3840"
     inkscape:window-height="2050"
     inkscape:window-x="0"
     inkscape:window-y="34"
     inkscape:window-maximized="1"
     height="209mm"
     inkscape:object-paths="true" />
  <metadata
     id="metadata5">
    <rdf:RDF>
      <cc:Work
         rdf:about="">
        <dc:format>image/svg+xml</dc:format>
        <dc:type
           rdf:resource="http://purl.org/dc/dcmitype/StillImage" />
        <dc:title></dc:title>
      </cc:Work>
    </rdf:RDF>
  </metadata>
  <g
     inkscape:label="Layer 1"
     inkscape:groupmode="layer"
     id="layer1"
     transform="translate(0,-135)">
    <rect
       style="opacity:1;vector-effect:none;fill:url(#radialGradient2679);fill-opacity:1;stroke:none;stroke-width:7.99999952;stroke-linecap:round;stroke-linejoin:round;stroke-miterlimit:4;stroke-dasharray:none;stroke-dashoffset:0;stroke-opacity:1;paint-order:stroke markers fill"
       id="rect2669"
       width="295.60007"
       height="148.33458"
       x="-2.167901"
       y="-14.723546" />
    <path
       sodipodi:nodetypes="ccccc"
       inkscape:connector-curvature="0"
       id="path2611"
       d="m 175.58463,322.4303 c 22.82054,-2.8048 34.02613,18.03297 34.02613,18.03297 l -31.52911,5.45537 -23.82632,-1.82457 c 6.27521,-6.59453 7.07668,-11.09377 21.3293,-21.66377 z"
       style="fill:#e7ab42;fill-opacity:1;stroke:none;stroke-width:0.26458332px;stroke-linecap:butt;stroke-linejoin:miter;stroke-opacity:1" />
    <path
       style="fill:#e7ab42;fill-opacity:1;stroke:none;stroke-width:0.26458332px;stroke-linecap:butt;stroke-linejoin:miter;stroke-opacity:1"
       d="m 112.1767,432.98951 c -22.82054,2.8048 -34.026129,-18.03297 -34.026129,-18.03297 l 31.529109,-5.45537 23.82632,1.82457 c -6.27521,6.59453 -7.07668,11.09377 -21.3293,21.66377 z"
       id="path2609"
       inkscape:connector-curvature="0"
       sodipodi:nodetypes="ccccc" />
    <path
       style="fill:#03f4fd;fill-opacity:1;stroke:none;stroke-width:1.99999964;stroke-linecap:butt;stroke-linejoin:miter;stroke-miterlimit:4;stroke-dasharray:none;stroke-opacity:1"
       d="m -206.20026,13.093388 c -8.47333,-0.0514 -16.8316,1.06126 -23.73542,3.48482 -6.89917,2.42195 -12.02949,5.2199 -15.72132,7.69648 12.71862,-6.32648 28.59426,-5.295 38.9032,0.28272 10.74596,5.81423 20.98635,15.12716 26.6368,20.75617 l 13.98443,-13.76485 c -4.30684,-4.09456 -10.66714,-9.73206 -16.49607,-14.01726 -0.67322,-0.4949 -1.57638,-1.16922 -2.51166,-1.86102 -6.55316,-1.64017 -13.8454,-2.53325 -21.05996,-2.57706 z m 70.64518,51.98733 -13.67566,13.45938 c 0.64921,0.5904 1.34722,1.21488 2.08707,1.86751 5.84237,2.98258 15.86451,7.371 28.79449,10.19663 8.17002,1.78544 18.810854,0.82329 27.037824,-0.47339 -6.2432,-0.37165 -12.157494,-1.97542 -16.895234,-4.53881 -10.61949,-5.74577 -21.32719,-14.76928 -27.34849,-20.51132 z"
       id="path865"
       inkscape:connector-curvature="0" />
    <path
       style="fill:#0071fe;fill-opacity:1;stroke:none;stroke-width:1.99999964;stroke-linecap:butt;stroke-linejoin:miter;stroke-miterlimit:4;stroke-dasharray:none;stroke-opacity:1"
       d="m -231.35934,-3.1963718 c -4.04762,0.0303 -10.33606,0.5374 -14.33801,1.65954 -9.24277,2.5916499 -17.14354,6.55562 -23.46807,12.0175698 -3.34447,6.48805 -5.12032,18.16326 -2.36516,33.99672 2.08152,11.96217 6.71263,17.23648 9.28781,19.323 -3.05755,-8.13239 -2.97861,-17.32946 1.72088,-25.58202 3.67151,-6.4474 8.92176,-10.99667 14.8571,-13.94901 3.69183,-2.47658 8.82215,-5.27453 15.72133,-7.69648 12.78594,-4.48848 30.55363,-4.47329 44.8029,-0.90236 -8.34313,-6.1714798 -26.55742,-19.0185598 -46.21878,-18.8669598 z"
       id="path878"
       inkscape:connector-curvature="0"
       sodipodi:nodetypes="cccscccccc" />
    <path
       style="fill:#23e31c;fill-opacity:1;stroke:none;stroke-width:1.99999964;stroke-linecap:butt;stroke-linejoin:miter;stroke-miterlimit:4;stroke-dasharray:none;stroke-opacity:1"
       d="m -51.148856,62.880798 c -0.57086,3.07377 -1.65323,6.11932 -3.31936,9.04515 -7.92225,13.91193 -23.17982,19.0167 -36.85944,18.204 -8.22772,1.29683 -18.871554,2.25921 -27.043464,0.47339 -12.93057,-2.82576 -22.95318,-7.21405 -28.79543,-10.19665 4.46342,3.93725 10.3487,8.81152 14.8138,12.21148 7.83619,5.96695 37.447374,26.244742 63.059974,19.063052 1.72909,-0.48484 3.4013,-1.03795 5.02518,-1.64548 6.82075,-6.84068 11.77443,-16.199432 12.98787,-26.153982 1.26998,-10.41811 0.86479,-16.99759 0.13077,-21.00096 z"
       id="path947"
       inkscape:connector-curvature="0"
       sodipodi:nodetypes="cscscsccccc" />
    <path
       style="fill:#9100ff;fill-opacity:1;stroke:none;stroke-width:1.99999964;stroke-linecap:butt;stroke-linejoin:miter;stroke-miterlimit:4;stroke-dasharray:none;stroke-opacity:1"
       d="m -269.15413,10.470978 c -11.20846,9.67374 -17.44944,24.06536 -17.29815,43.97345 0.0728,9.57617 2.3903,18.80267 6.35066,26.91224 20.50294,15.49849 45.44801,7.94165 52.8769,4.77064 -2.06329,0.23808 -4.16198,0.32069 -6.30171,0.2199 -13.17173,-1.13026 -24.26639,-10.71092 -28.71634,-22.54675 -2.57519,-2.08652 -7.2063,-7.36083 -9.28782,-19.323 -2.76155,-15.87028 -0.97031,-27.53516 2.37646,-34.00648 z"
       id="path885"
       inkscape:connector-curvature="0"
       sodipodi:nodetypes="csccccsc" />
    <path
       style="fill:#f3e40b;fill-opacity:1;stroke:none;stroke-width:1.99999964;stroke-linecap:butt;stroke-linejoin:miter;stroke-miterlimit:4;stroke-dasharray:none;stroke-opacity:1"
       d="m -69.158226,14.632908 c -7.12565,0.14773 -13.8953,2.02399 -19.21468,4.92013 -4.46055,2.42855 -8.36342,5.45136 -11.03182,7.72357 5.81241,-2.45542 11.78789,-3.7692 17.94078,-3.47941 19.01337,1.63153 33.69741,20.86965 30.31475,39.08365 0.73393,4.00334 1.13993,10.58284 -0.12998,21.00097 -1.21348,9.95451 -6.16738,19.313292 -12.98819,26.153972 22.43034,-8.39143 34.76016,-28.176242 35.07023,-50.960402 0.10571,-7.76025 -0.92909,-14.94263 -2.85435,-21.45809 -0.22036,-0.44205 -0.44589,-0.87381 -0.67378,-1.30207 -0.18153,-0.33965 -0.36583,-0.67479 -0.55247,-1.00525 -0.0141,-0.0268 -0.0295,-0.0545 -0.0444,-0.0814 -0.005,-0.008 -0.0109,-0.0168 -0.0141,-0.026 -8.7472,-15.39919 -22.87257,-20.83835 -35.8209,-20.56985 z"
       id="path939"
       inkscape:connector-curvature="0" />
    <path
       inkscape:connector-curvature="0"
       id="path2311"
       d="m 96.18744,-128.74233 c -8.47333,-0.0514 -16.8316,1.06126 -23.73542,3.48482 -6.89916,2.42195 -12.02949,5.2199 -15.72131,7.69648 12.71862,-6.32648 28.59425,-5.295 38.90319,0.28272 10.74596,5.81423 20.98635,15.12716 26.6368,20.756174 l 13.98443,-13.764854 c -4.30684,-4.09456 -10.66714,-9.73206 -16.49607,-14.01726 -0.67322,-0.4949 -1.57638,-1.16922 -2.51166,-1.86102 -6.55316,-1.64017 -13.8454,-2.53325 -21.05996,-2.57706 z m 70.64518,51.987333 -13.67566,13.45938 c 0.64921,0.5904 1.34722,1.21488 2.08707,1.86751 5.84237,2.98258 15.86451,7.371 28.79449,10.19663 8.17002,1.78544 18.81085,0.82329 27.03782,-0.47339 -6.2432,-0.37165 -12.15749,-1.97542 -16.89523,-4.53881 -10.61949,-5.74577 -21.32719,-14.76928 -27.34849,-20.51132 z"
       style="fill:#03f4fd;fill-opacity:1;stroke:none;stroke-width:1.99999964;stroke-linecap:butt;stroke-linejoin:miter;stroke-miterlimit:4;stroke-dasharray:none;stroke-opacity:1" />
    <path
       sodipodi:nodetypes="cccscccccc"
       inkscape:connector-curvature="0"
       id="path2313"
       d="m 71.02837,-145.03209 c -4.04763,0.0303 -10.33606,0.5374 -14.33802,1.65954 -9.24277,2.59165 -17.14354,6.55562 -23.46807,12.01757 -3.34447,6.48805 -5.12031,18.16326 -2.36516,33.996724 2.08152,11.962169 6.71264,17.236479 9.28781,19.322999 -3.05754,-8.132389 -2.97861,-17.329459 1.72088,-25.582023 3.67152,-6.4474 8.92177,-10.99667 14.85711,-13.94901 3.69182,-2.47658 8.82215,-5.27453 15.72132,-7.69648 12.78594,-4.48848 30.55363,-4.47329 44.8029,-0.90236 -8.34313,-6.17148 -26.55741,-19.01856 -46.21877,-18.86696 z"
       style="fill:#0071fe;fill-opacity:1;stroke:none;stroke-width:1.99999964;stroke-linecap:butt;stroke-linejoin:miter;stroke-miterlimit:4;stroke-dasharray:none;stroke-opacity:1" />
    <path
       sodipodi:nodetypes="csccccsc"
       inkscape:connector-curvature="0"
       id="path2315"
       d="m 33.23358,-131.36474 c -11.20847,9.67374 -17.44944,24.06536 -17.29816,43.973454 0.0728,9.576169 2.3903,18.802669 6.35066,26.912239 20.50294,15.49849 45.44801,7.94165 52.8769,4.77064 -2.06329,0.23808 -4.16197,0.32069 -6.3017,0.2199 -13.17173,-1.13026 -24.2664,-10.71092 -28.71635,-22.54675 -2.57519,-2.08652 -7.20629,-7.36083 -9.28781,-19.322999 -2.76156,-15.870284 -0.97032,-27.535164 2.37646,-34.006484 z"
       style="fill:#9100ff;fill-opacity:1;stroke:none;stroke-width:1.99999964;stroke-linecap:butt;stroke-linejoin:miter;stroke-miterlimit:4;stroke-dasharray:none;stroke-opacity:1" />
    <path
       sodipodi:nodetypes="cccccc"
       inkscape:connector-curvature="0"
       id="path2317"
       d="m 130.92848,-95.797306 c -17.141,18.117099 -34.51475,37.636229 -55.7655,40.088899 -7.42778,3.17099 -32.37323,10.72889 -52.8769,-4.76953 7.45577,15.26615 22.95928,26.56668 38.10453,28.74292 7.04461,1.01228 14.918,1.27537 23.28072,0.30441 32.06832,-13.73138 29.12127,-40.12186 47.25715,-64.366699 z"
       style="fill:#e60ec9;fill-opacity:1;stroke:none;stroke-width:1.99999964;stroke-linecap:butt;stroke-linejoin:miter;stroke-miterlimit:4;stroke-dasharray:none;stroke-opacity:1" />
    <path
       inkscape:connector-curvature="0"
       id="path2319"
       d="m 199.4414,-143.51447 c -15.49497,3.26456 -32.68744,12.65417 -54.5624,33.67064 -4.68108,4.33199 -9.30782,9.13958 -13.95052,14.046524 -18.14594,24.247869 -15.1947,50.643779 -47.2675,64.377529 19.16705,-2.22564 40.91646,-10.96434 61.23593,-32.24618 6.49119,-6.41817 13.20152,-13.79703 20.14869,-21.0118 5.25743,-10.076209 5.16431,-21.779863 10.49562,-34.435433 6.70089,-15.90663 18.54107,-22.25337 23.90018,-24.40128 z"
       style="fill:#e33208;fill-opacity:1;stroke:none;stroke-width:1.99999964;stroke-linecap:butt;stroke-linejoin:miter;stroke-miterlimit:4;stroke-dasharray:none;stroke-opacity:1" />
    <path
       inkscape:connector-curvature="0"
       id="path2321"
       d="m 233.22947,-127.20281 c -7.12565,0.14773 -13.8953,2.02399 -19.21468,4.92013 -4.46055,2.42855 -8.36342,5.45136 -11.03182,7.72357 5.81241,-2.45542 11.78789,-3.7692 17.94078,-3.47941 19.01337,1.63153 33.69741,20.869654 30.31475,39.083653 0.73393,4.00334 1.13993,10.58284 -0.12998,21.00097 -1.21348,9.95451 -6.16738,19.31329 -12.98819,26.15397 22.43034,-8.39143 34.76016,-28.17624 35.07023,-50.9604 0.10571,-7.760249 -0.92909,-14.942629 -2.85435,-21.458093 -0.22036,-0.44205 -0.44589,-0.87381 -0.67378,-1.30207 -0.18153,-0.33965 -0.36583,-0.67479 -0.55247,-1.00525 -0.0141,-0.0268 -0.0295,-0.0545 -0.0444,-0.0814 -0.005,-0.008 -0.0109,-0.0168 -0.0141,-0.026 -8.7472,-15.39919 -22.87257,-20.83835 -35.8209,-20.56985 z"
       style="fill:#f3e40b;fill-opacity:1;stroke:none;stroke-width:1.99999964;stroke-linecap:butt;stroke-linejoin:miter;stroke-miterlimit:4;stroke-dasharray:none;stroke-opacity:1" />
    <path
       sodipodi:nodetypes="cscscsccccc"
       inkscape:connector-curvature="0"
       id="path2323"
       d="m 251.23884,-78.954917 c -0.57086,3.07377 -1.65323,6.11932 -3.31936,9.04515 -7.92225,13.91193 -23.17982,19.0167 -36.85944,18.204 -8.22772,1.29683 -18.87155,2.25921 -27.04346,0.47339 -12.93057,-2.82576 -22.95318,-7.21405 -28.79543,-10.19665 4.46342,3.93725 10.3487,8.81152 14.8138,12.21148 7.83619,5.96695 37.44737,26.24474 63.05997,19.06305 1.72909,-0.48484 3.4013,-1.03795 5.02518,-1.64548 6.82075,-6.84068 11.77443,-16.19943 12.98787,-26.15398 1.26998,-10.41811 0.86479,-16.99759 0.13077,-21.00096 z"
       style="fill:#23e31c;fill-opacity:1;stroke:none;stroke-width:1.99999964;stroke-linecap:butt;stroke-linejoin:miter;stroke-miterlimit:4;stroke-dasharray:none;stroke-opacity:1" />
    <path
       sodipodi:nodetypes="ccccccccc"
       inkscape:connector-curvature="0"
       id="path2325"
       d="m 212.86665,-144.94759 c -4.37734,0.0332 -8.82675,0.46429 -13.42525,1.43312 -5.35908,2.14791 -17.19929,8.49465 -23.90015,24.4013 -5.33122,12.65526 -5.23826,24.359334 -10.49561,34.435423 11.87394,-12.331359 24.45483,-24.172543 37.92129,-29.867363 2.66877,-2.27371 6.57896,-5.30435 11.04822,-7.73765 15.47456,-8.42509 43.21631,-8.21956 56.32145,18.06427 -6.68757,-22.62339 -26.36235,-37.18119 -44.36666,-39.76827 -4.34826,-0.6248 -8.68934,-0.99415 -13.10329,-0.96083 z"
       style="fill:#ffa101;fill-opacity:1;stroke:none;stroke-width:1.99999964;stroke-linecap:butt;stroke-linejoin:miter;stroke-miterlimit:4;stroke-dasharray:none;stroke-opacity:1" />
    <path
       id="path2327"
       d="m 55.43569,-143.00564 c -8.70326,2.59316 -16.17791,6.43792 -22.21363,11.65045 -2.28922,4.44093 -3.84252,11.31362 -3.71192,20.28507 0.39541,-15.58909 16.47934,-28.38445 25.92555,-31.93552 z"
       style="fill:#ffdc62;fill-opacity:1;stroke:none;stroke-width:0.26458332px;stroke-linecap:butt;stroke-linejoin:miter;stroke-opacity:1"
       inkscape:connector-curvature="0" />
    <path
       id="path2329"
       d="m 16.22672,-81.885857 c 0.7404,7.593867 2.86438,14.864218 6.05958,21.406961 7.14499,5.401014 14.82857,8.000214 22.12319,8.962761 -0.0617,-0.01783 -0.11616,-0.03594 -0.18138,-0.05374 -11.70613,-3.194709 -24.06528,-13.782304 -28.00139,-30.315982 z"
       style="fill:#ffdc62;fill-opacity:1;stroke:none;stroke-width:0.26458332px;stroke-linecap:butt;stroke-linejoin:miter;stroke-opacity:1"
       inkscape:connector-curvature="0" />
    <path
       id="path2331"
       d="m 110.5946,-55.927753 c -0.002,0.0022 -0.003,0.004 -0.005,0.0062 -7.83411,9.944883 -31.01717,26.662282 -50.63567,24.115839 0.14554,0.02259 0.29119,0.0499 0.43667,0.0708 7.04461,1.01228 14.91803,1.275334 23.28075,0.304374 14.24564,-6.099862 21.57977,-14.698924 26.92342,-24.497212 z"
       style="fill:#ffdc62;fill-opacity:1;stroke:none;stroke-width:0.26458332px;stroke-linecap:butt;stroke-linejoin:miter;stroke-opacity:1"
       inkscape:connector-curvature="0" />
    <path
       id="path2333"
       d="m 130.96596,-115.11535 c -0.79135,-0.70212 -1.55641,-1.39384 -2.38796,-2.10892 -1.42853,-1.22842 -2.90458,-2.46256 -4.38785,-3.65766 -1.48327,-1.19509 -2.97402,-2.35123 -4.43125,-3.42253 -0.67322,-0.4949 -1.5762,-1.16906 -2.51148,-1.86086 -1.63829,-0.41005 -3.3226,-0.77325 -5.04052,-1.08831 -1.71791,-0.31506 -3.46953,-0.58203 -5.24154,-0.79892 -1.77201,-0.21688 -3.56446,-0.38368 -5.36504,-0.49919 -1.80059,-0.11552 -3.60947,-0.17974 -5.41311,-0.19069 16.65337,0.21744 26.41363,7.516 34.77875,13.62708 z"
       style="fill:#ffd130;fill-opacity:1;stroke:none;stroke-width:0.26458332px;stroke-linecap:butt;stroke-linejoin:miter;stroke-opacity:1"
       inkscape:connector-curvature="0" />
    <path
       style="fill:#ffa101;fill-opacity:1;stroke:none;stroke-width:1.99999964;stroke-linecap:butt;stroke-linejoin:miter;stroke-miterlimit:4;stroke-dasharray:none;stroke-opacity:1"
       d="m -89.521046,-3.1118718 c -4.37734,0.0332 -8.82675,0.46429 -13.425254,1.43312 -5.35908,2.14790994 -17.19929,8.49465 -23.90015,24.4012998 -5.33122,12.65526 -5.23826,24.35933 -10.49561,34.43542 11.87394,-12.33136 24.45483,-24.17254 37.921294,-29.86736 2.66877,-2.27371 6.57896,-5.30435 11.04822,-7.73765 15.47456,-8.42509 43.21631,-8.21956 56.32145,18.06427 -6.68757,-22.62339 -26.36235,-37.18118986 -44.36666,-39.7682698 -4.34826,-0.6248 -8.68934,-0.99415 -13.10329,-0.96083 z"
       id="path931"
       inkscape:connector-curvature="0"
       sodipodi:nodetypes="ccccccccc" />
    <path
       style="fill:#e60ec9;fill-opacity:1;stroke:none;stroke-width:1.99999964;stroke-linecap:butt;stroke-linejoin:miter;stroke-miterlimit:4;stroke-dasharray:none;stroke-opacity:1"
       d="m -171.45922,46.038408 c -17.141,18.1171 -34.51475,37.63623 -55.7655,40.0889 -7.42778,3.17099 -32.37323,10.72889 -52.8769,-4.76953 7.45576,15.26615 22.95928,26.566682 38.10452,28.742922 7.04462,1.01228 14.91801,1.27537 23.28072,0.30441 32.06833,-13.731382 29.12128,-40.121862 47.25716,-64.366702 z"
       id="path901"
       inkscape:connector-curvature="0"
       sodipodi:nodetypes="cccccc" />
    <path
       style="fill:#e33208;fill-opacity:1;stroke:none;stroke-width:1.99999964;stroke-linecap:butt;stroke-linejoin:miter;stroke-miterlimit:4;stroke-dasharray:none;stroke-opacity:1"
       d="m -102.9463,-1.6787518 c -15.49497,3.26456 -32.68744,12.6541698 -54.5624,33.6706398 -4.68108,4.33199 -9.30782,9.13958 -13.95052,14.04652 -18.14594,24.24787 -15.1947,50.64378 -47.2675,64.377532 19.16705,-2.22564 40.91646,-10.964342 61.23593,-32.246182 6.49119,-6.41817 13.20152,-13.79703 20.14869,-21.0118 5.25743,-10.07621 5.16431,-21.77986 10.49562,-34.43543 6.70089,-15.9066298 18.54107,-22.25336986 23.90018,-24.4012798 z"
       id="path910"
       inkscape:connector-curvature="0" />
    <path
       style="fill:url(#radialGradient2400);fill-opacity:1;stroke:none;stroke-width:0.26458332px;stroke-linecap:butt;stroke-linejoin:miter;stroke-opacity:1"
       d="m -155.00982,-54.344457 c -21.2014,0.185391 -40.18835,16.833058 -42.74778,37.328988 -0.73564,5.89104 -0.95947,12.436673 -0.34985,19.384864 6.15242,3.4096722 11.20714,7.0396311 14.70401,9.618017 l 0.0176,0.0047 0.62477,0.461987 c 0.94456,0.698658 1.85044,1.374534 2.50217,1.853633 6.00441,4.414213 12.35763,10.048013 16.75712,14.223421 -9.39456,-11.524189 -16.59615,-23.7880073 -16.01194,-38.0607249 1.46458,-19.6396701 21.40232,-34.0566621 36.9657,-23.8584921 15.56341,10.19818 17.58156,34.9524289 11.29832,48.315189 -4.9807,10.592588 -17.07527,22.369621 -19.07779,24.600876 -2.00253,2.231255 -14.46563,13.168206 -20.86839,20.532714 -5.06601,5.826964 -10.20012,12.473712 -13.79245,18.609939 -4.58295,6.92557 -19.49599,32.364086 -13.98002,55.000336 5.51598,22.63622 21.63828,35.14218 40.40477,35.43607 26.65961,0.41753 44.47129,-19.27838 47.03072,-39.77431 0.80248,-6.42635 1.05571,-12.83503 0.23203,-19.55643 -10.98376,-4.96202 -19.62181,-11.041798 -23.47506,-13.975887 -4.58338,-3.490032 -10.49304,-8.386398 -15.03629,-12.394078 l 0.008,-0.01188 c -0.54851,-0.483931 -1.05079,-0.936824 -1.55443,-1.390613 11.21343,13.205833 20.5238,27.405468 19.89077,42.871288 -1.46459,19.63966 -21.40233,34.05665 -36.9657,23.85849 -15.5634,-10.19816 -18.29513,-32.67267 -13.52032,-46.56844 4.7748,-13.895767 9.13643,-22.153799 23.28311,-36.386334 14.1467,-14.232549 25.55328,-21.672894 35.03989,-36.379996 3.77251,-5.90482 13.02148,-17.696109 12.89201,-37.0133189 -0.0233,-3.5772701 -0.41247,-7.1740641 -1.27434,-10.7109741 -5.51597,-22.636239 -19.08092,-36.228109 -42.99686,-36.01899 z m -30.19041,66.015091 c -0.0938,0.0021 -0.11672,0.0042 -0.11472,0.0041 0.002,0 0.0334,-0.0031 0.12454,-0.0041 -0.003,1.1e-5 -0.008,-2.9e-5 -0.01,0 z m 0.1664,0.0031 c 0.0248,2.64e-4 0.0607,0.0013 0.0713,0.0016 0,-10e-6 -0.004,-5.29e-4 -0.004,-5.29e-4 1e-5,0 -0.0426,-7.94e-4 -0.0672,-0.0011 z m 0.40205,0.04857 c 0.19634,0.03003 0.39842,0.06094 0.447,0.06821 l -0.0181,-0.0078 c 1e-5,0 -0.22435,-0.0316 -0.42891,-0.06046 z m 37.77391,68.953932 -0.34984,0.67851 0.42013,-0.617534 c -0.0229,-0.02013 -0.0474,-0.04089 -0.0703,-0.06098 z"
       id="path834"
       inkscape:connector-curvature="0"
       sodipodi:nodetypes="cccccccccsszacscsccccccczzccssccccccccccccccccccccc" />
    <path
       style="fill:#03f4fd;fill-opacity:1;stroke:none;stroke-width:1.99999964;stroke-linecap:butt;stroke-linejoin:miter;stroke-miterlimit:4;stroke-dasharray:none;stroke-opacity:1"
       d="m -207.8041,260.9964 c -8.47334,-0.0514 -16.83118,1.0615 -23.73498,3.48506 -6.89919,2.42195 -12.0297,5.22011 -15.72154,7.69669 12.71863,-6.32648 28.59413,-5.29505 38.90306,0.28267 5.55602,3.00614 10.97087,6.9469 15.69207,10.83086 -3.63291,-8.24322 -6.11002,-15.59209 -7.78454,-21.95731 -2.43901,-0.20727 -4.90093,-0.32307 -7.35407,-0.33797 z m 70.64529,51.98753 -13.67565,13.45964 c 0.64921,0.5904 1.34736,1.21444 2.08722,1.86707 5.84236,2.98258 15.86464,7.37116 28.79462,10.19679 8.17002,1.78544 18.81066,0.82333 27.037625,-0.47335 -6.2432,-0.37165 -12.157355,-1.97535 -16.895095,-4.53874 -10.61949,-5.74578 -21.32742,-14.76937 -27.34872,-20.51141 z"
       id="path2402"
       inkscape:connector-curvature="0"
       sodipodi:nodetypes="cscccccccccccc" />
    <path
       style="fill:#0071fe;fill-opacity:1;stroke:none;stroke-width:1.99999964;stroke-linecap:butt;stroke-linejoin:miter;stroke-miterlimit:4;stroke-dasharray:none;stroke-opacity:1"
       d="m -232.96277,244.70696 c -4.04763,0.0303 -10.33619,0.53719 -14.33815,1.65933 -9.24276,2.59165 -17.1438,6.55592 -23.46833,12.01787 -3.34446,6.48805 -5.11987,18.16291 -2.36471,33.99637 2.0815,11.96217 6.71261,17.23685 9.2878,19.32337 -3.05755,-8.13239 -2.97868,-17.32986 1.72083,-25.58242 3.67151,-6.4474 8.92164,-10.99667 14.85696,-13.94901 3.69184,-2.47659 8.82234,-5.27423 15.72154,-7.69618 8.90632,-3.12655 20.22898,-4.06547 31.0968,-3.14192 -0.73512,-2.79435 -1.31998,-5.40446 -1.77353,-7.80935 -8.72305,-4.73745 -19.49239,-8.90478 -30.73921,-8.81806 z"
       id="path2404"
       inkscape:connector-curvature="0" />
    <path
       sodipodi:nodetypes="cscscsccccc"
       inkscape:connector-curvature="0"
       id="path2406"
       d="m -52.752473,310.78406 c -0.57086,3.07377 -1.65323,6.11932 -3.31936,9.04515 -7.92225,13.91193 -23.17982,19.0167 -36.85944,18.204 -8.227717,1.29683 -18.871547,2.25921 -27.043457,0.47339 -12.93057,-2.82576 -22.95318,-7.21405 -28.79543,-10.19665 4.46342,3.93725 10.3487,8.81152 14.8138,12.21148 7.83619,5.96695 37.447367,26.24474 63.059967,19.06305 1.72909,-0.48484 3.4013,-1.03795 5.02518,-1.64548 6.82075,-6.84068 11.77443,-16.19943 12.98787,-26.15398 1.26998,-10.41811 0.86479,-16.99759 0.13077,-21.00096 z"
       style="fill:#23e31c;fill-opacity:1;stroke:none;stroke-width:1.99999964;stroke-linecap:butt;stroke-linejoin:miter;stroke-miterlimit:4;stroke-dasharray:none;stroke-opacity:1" />
    <path
       sodipodi:nodetypes="csccccsc"
       inkscape:connector-curvature="0"
       id="path2408"
       d="m -270.75774,258.37424 c -11.20846,9.67374 -17.44944,24.06536 -17.29815,43.97345 0.0728,9.57617 2.3903,18.80267 6.35066,26.91224 20.50294,15.49849 45.44801,7.94165 52.8769,4.77064 -2.06329,0.23808 -4.16198,0.32069 -6.30171,0.2199 -13.17173,-1.13026 -24.26639,-10.71092 -28.71634,-22.54675 -2.57519,-2.08652 -7.2063,-7.36083 -9.28782,-19.323 -2.76155,-15.87028 -0.97031,-27.53516 2.37646,-34.00648 z"
       style="fill:#9100ff;fill-opacity:1;stroke:none;stroke-width:1.99999964;stroke-linecap:butt;stroke-linejoin:miter;stroke-miterlimit:4;stroke-dasharray:none;stroke-opacity:1" />
    <path
       inkscape:connector-curvature="0"
       id="path2410"
       d="m -70.761843,262.53617 c -7.12565,0.14773 -13.8953,2.02399 -19.21468,4.92013 -4.46055,2.42855 -8.36342,5.45136 -11.031817,7.72357 5.812407,-2.45542 11.787887,-3.7692 17.940777,-3.47941 19.01337,1.63153 33.69741,20.86965 30.31475,39.08365 0.73393,4.00334 1.13993,10.58284 -0.12998,21.00097 -1.21348,9.95451 -6.16738,19.31329 -12.98819,26.15397 22.43034,-8.39143 34.76016,-28.17624 35.07023,-50.9604 0.10571,-7.76025 -0.92909,-14.94263 -2.85435,-21.45809 -0.22036,-0.44205 -0.44589,-0.87381 -0.67378,-1.30207 -0.18153,-0.33965 -0.36583,-0.67479 -0.55247,-1.00525 -0.0141,-0.0268 -0.0295,-0.0545 -0.0444,-0.0814 -0.005,-0.008 -0.0109,-0.0168 -0.0141,-0.026 -8.7472,-15.39919 -22.87257,-20.83835 -35.8209,-20.56985 z"
       style="fill:#f3e40b;fill-opacity:1;stroke:none;stroke-width:1.99999964;stroke-linecap:butt;stroke-linejoin:miter;stroke-miterlimit:4;stroke-dasharray:none;stroke-opacity:1" />
    <path
       sodipodi:nodetypes="ccccccccc"
       inkscape:connector-curvature="0"
       id="path2412"
       d="m -91.124663,244.79139 c -4.37734,0.0332 -8.82675,0.46429 -13.425247,1.43312 -5.35908,2.14791 -17.19929,8.49465 -23.90015,24.4013 -5.33122,12.65526 -5.23826,24.35933 -10.49561,34.43542 11.87394,-12.33136 24.45483,-24.17254 37.92129,-29.86736 2.668767,-2.27371 6.578957,-5.30435 11.048217,-7.73765 15.47456,-8.42509 43.21631,-8.21956 56.32145,18.06427 -6.68757,-22.62339 -26.36235,-37.18119 -44.36666,-39.76827 -4.34826,-0.6248 -8.68934,-0.99415 -13.10329,-0.96083 z"
       style="fill:#ffa101;fill-opacity:1;stroke:none;stroke-width:1.99999964;stroke-linecap:butt;stroke-linejoin:miter;stroke-miterlimit:4;stroke-dasharray:none;stroke-opacity:1" />
    <path
       sodipodi:nodetypes="cccccc"
       inkscape:connector-curvature="0"
       id="path2414"
       d="m -173.06283,293.94167 c -17.141,18.1171 -34.51475,37.63623 -55.7655,40.0889 -7.42778,3.17099 -32.37323,10.72889 -52.8769,-4.76953 7.45576,15.26615 22.95928,26.56668 38.10452,28.74292 7.04462,1.01228 14.91801,1.27537 23.28072,0.30441 32.06833,-13.73138 29.12128,-40.12186 47.25716,-64.3667 z"
       style="fill:#e60ec9;fill-opacity:1;stroke:none;stroke-width:1.99999964;stroke-linecap:butt;stroke-linejoin:miter;stroke-miterlimit:4;stroke-dasharray:none;stroke-opacity:1" />
    <path
       inkscape:connector-curvature="0"
       id="path2416"
       d="m -104.54991,246.22451 c -15.49497,3.26456 -32.68744,12.65417 -54.5624,33.67064 -4.68108,4.33199 -9.30782,9.13958 -13.95052,14.04652 -18.14594,24.24787 -15.1947,50.64378 -47.2675,64.37753 19.16705,-2.22564 40.91646,-10.96434 61.23593,-32.24618 6.49119,-6.41817 13.20152,-13.79703 20.14869,-21.0118 5.25743,-10.07621 5.16431,-21.77986 10.49562,-34.43543 6.70089,-15.90663 18.54107,-22.25337 23.90018,-24.40128 z"
       style="fill:#e33208;fill-opacity:1;stroke:none;stroke-width:1.99999964;stroke-linecap:butt;stroke-linejoin:miter;stroke-miterlimit:4;stroke-dasharray:none;stroke-opacity:1" />
    <path
       style="fill:url(#radialGradient2420);fill-opacity:1;stroke:none;stroke-width:0.26458332px;stroke-linecap:butt;stroke-linejoin:miter;stroke-opacity:1"
       d="m -156.61343,193.55866 c -21.2014,0.18539 -40.18834,16.83306 -42.74779,37.32899 -0.73562,5.89104 -0.73372,28.35552 17.64079,62.32901 l 17.08268,-16.31425 c -9.39456,-11.52419 -17.06382,-24.25568 -16.47961,-38.5284 1.46458,-19.63967 21.40232,-34.05666 36.9657,-23.85849 15.56341,10.19818 17.58177,34.95264 11.29853,48.3154 -4.9807,10.59259 -17.07538,22.36931 -19.0779,24.60056 -2.00253,2.23126 -14.46573,13.16809 -20.86849,20.5326 -5.06601,5.82696 -10.20011,12.474 -13.79244,18.61023 -4.58295,6.92557 -19.496,32.36401 -13.98002,55.00026 5.51597,22.63622 21.63827,35.1422 40.40476,35.43607 26.65961,0.41754 44.47129,-19.27838 47.03072,-39.77431 0.80248,-6.42634 2.64321,-11.77669 1.81953,-18.49809 -0.0478,-0.0216 -0.0938,-0.044 -0.1416,-0.0656 -12.28197,-4.97194 -22.29826,-11.97907 -26.3865,-15.0921 -2.85119,-2.17105 -6.2794,-4.94239 -9.54877,-7.6879 9.1225,11.90346 14.87803,23.31726 14.32264,36.88612 -1.46459,19.63965 -21.40233,34.05665 -36.9657,23.85849 -15.5634,-10.19816 -18.29543,-32.67297 -13.52062,-46.56874 4.7748,-13.89576 9.13665,-22.15336 23.28333,-36.38589 14.1467,-14.23255 26.59232,-21.29535 36.07893,-36.00245 3.77251,-5.90482 11.9825,-18.07379 11.85303,-37.391 -0.0233,-3.57727 -0.41247,-7.17406 -1.27434,-10.71097 -5.51597,-22.63624 -19.08092,-36.22811 -42.99686,-36.01899 z m 8.15195,135.0207 -0.34984,0.67851 0.42013,-0.61753 c -0.0229,-0.0201 -0.0474,-0.0409 -0.0703,-0.061 z"
       id="path2418"
       inkscape:connector-curvature="0"
       sodipodi:nodetypes="cccccsssccscccccccsssccscccccc" />
    <path
       style="fill:#ffe898;fill-opacity:1;stroke:none;stroke-width:0.26458332px;stroke-linecap:butt;stroke-linejoin:miter;stroke-opacity:1"
       d="m 212.86651,-144.94747 c -4.37732,0.0332 -8.8265,0.46416 -13.42501,1.43299 -4.80293,1.925 -14.80934,7.22805 -21.65864,19.75745 6.70454,-9.42847 25.87212,-21.12826 38.67259,-21.12895 -1.19211,-0.0476 -2.38766,-0.0706 -3.58894,-0.0615 z"
       id="path2445"
       inkscape:connector-curvature="0" />
    <path
       style="fill:#fff1c2;fill-opacity:1;stroke:none;stroke-width:0.26458332px;stroke-linecap:butt;stroke-linejoin:miter;stroke-opacity:1"
       d="m 245.92032,-125.53005 c 12.41917,3.977 26.24804,23.68435 27.21745,38.667404 -0.2413,-6.202074 -1.22005,-12.003971 -2.80138,-17.355524 -0.22035,-0.44206 -0.44596,-0.87399 -0.67387,-1.30225 -0.18153,-0.33965 -0.36576,-0.67465 -0.5524,-1.00511 -0.0141,-0.0268 -0.0295,-0.0547 -0.0444,-0.0816 -0.005,-0.008 -0.0113,-0.0166 -0.0145,-0.0258 -5.92283,-10.42694 -14.31152,-16.28289 -23.13088,-18.89703 z"
       id="path2447"
       inkscape:connector-curvature="0" />
    <path
       style="fill:#fff6d7;fill-opacity:1;stroke:none;stroke-width:0.26458332px;stroke-linecap:butt;stroke-linejoin:miter;stroke-opacity:1"
       d="m 250.08441,-52.593937 c -3.77362,13.763614 -23.97961,25.297733 -38.28812,23.037353 7.04911,1.274392 14.32179,1.358333 21.29846,-0.597895 1.72908,-0.484841 3.40164,-1.03785 5.02552,-1.645378 5.5803,-5.596599 9.90904,-12.879231 11.96414,-20.79408 z"
       id="path2449"
       inkscape:connector-curvature="0" />
    <path
       style="fill:#ffdc62;fill-opacity:1;stroke:none;stroke-width:0.26458332px;stroke-linecap:butt;stroke-linejoin:miter;stroke-opacity:1"
       d="m 153.69028,-63.820642 -0.5333,0.525032 c 0.64921,0.590401 1.34737,1.214956 2.08722,1.867587 4.88561,2.494143 12.70251,5.968656 22.69008,8.69301 -0.27559,-0.117417 -14.38476,-6.136275 -24.244,-11.085629 z"
       id="path2451"
       inkscape:connector-curvature="0" />
    <path
       style="fill:#23e31c;fill-opacity:1;stroke:none;stroke-width:1.99999964;stroke-linecap:butt;stroke-linejoin:miter;stroke-miterlimit:4;stroke-dasharray:none;stroke-opacity:1"
       d="m 253.42263,383.74864 c -0.57086,3.07377 -1.65323,6.11932 -3.31936,9.04515 -7.92225,13.91193 -23.17982,19.0167 -36.85944,18.204 -8.22772,1.29683 -18.87155,2.25921 -27.04346,0.47339 -12.93057,-2.82576 -22.95318,-7.21405 -28.79543,-10.19665 4.46342,3.93725 10.3487,8.81152 14.8138,12.21148 7.83619,5.96695 37.44737,26.24474 63.05997,19.06305 1.72909,-0.48484 3.4013,-1.03795 5.02518,-1.64548 6.82075,-6.84068 11.77443,-16.19943 12.98787,-26.15398 1.26998,-10.41811 0.86479,-16.99759 0.13077,-21.00096 z"
       id="path2469"
       inkscape:connector-curvature="0"
       sodipodi:nodetypes="cscscsccccc" />
    <path
       style="fill:#9100ff;fill-opacity:1;stroke:none;stroke-width:1.99999964;stroke-linecap:butt;stroke-linejoin:miter;stroke-miterlimit:4;stroke-dasharray:none;stroke-opacity:1"
       d="m 35.417354,331.33882 c -11.20846,9.67374 -17.44944,24.06536 -17.29815,43.97345 0.0728,9.57617 2.3903,18.80267 6.35066,26.91224 20.50294,15.49849 45.44801,7.94165 52.8769,4.77064 -2.06329,0.23808 -4.16198,0.32069 -6.30171,0.2199 -13.17173,-1.13026 -24.26639,-10.71092 -28.71634,-22.54675 -2.57519,-2.08652 -7.2063,-7.36083 -9.28782,-19.323 -2.76155,-15.87028 -0.97031,-27.53516 2.37646,-34.00648 z"
       id="path2471"
       inkscape:connector-curvature="0"
       sodipodi:nodetypes="csccccsc" />
    <path
       style="fill:#f3e40b;fill-opacity:1;stroke:none;stroke-width:1.99999964;stroke-linecap:butt;stroke-linejoin:miter;stroke-miterlimit:4;stroke-dasharray:none;stroke-opacity:1"
       d="m 235.41326,335.50075 c -7.12565,0.14773 -13.8953,2.02399 -19.21468,4.92013 -4.46055,2.42855 -8.36342,5.45136 -11.03182,7.72357 5.81241,-2.45542 11.78789,-3.7692 17.94078,-3.47941 19.01337,1.63153 33.69741,20.86965 30.31475,39.08365 0.73393,4.00334 1.13993,10.58284 -0.12998,21.00097 -1.21348,9.95451 -6.16738,19.31329 -12.98819,26.15397 22.43034,-8.39143 34.76016,-28.17624 35.07023,-50.9604 0.10571,-7.76025 -0.92909,-14.94263 -2.85435,-21.45809 -0.22036,-0.44205 -0.44589,-0.87381 -0.67378,-1.30207 -0.18153,-0.33965 -0.36583,-0.67479 -0.55247,-1.00525 -0.0141,-0.0268 -0.0295,-0.0545 -0.0444,-0.0814 -0.005,-0.008 -0.0109,-0.0168 -0.0141,-0.026 -8.7472,-15.39919 -22.87257,-20.83835 -35.8209,-20.56985 z"
       id="path2473"
       inkscape:connector-curvature="0" />
    <path
       style="fill:#ffa101;fill-opacity:1;stroke:none;stroke-width:1.99999964;stroke-linecap:butt;stroke-linejoin:miter;stroke-miterlimit:4;stroke-dasharray:none;stroke-opacity:1"
       d="m 215.05044,317.75597 c -4.37734,0.0332 -8.82675,0.46429 -13.42525,1.43312 -5.35908,2.14791 -17.19929,8.49465 -23.90015,24.4013 -5.33122,12.65526 -5.23826,24.35933 -10.49561,34.43542 11.87394,-12.33136 24.45483,-24.17254 37.92129,-29.86736 2.66877,-2.27371 6.57896,-5.30435 11.04822,-7.73765 15.47456,-8.42509 43.21631,-8.21956 56.32145,18.06427 -6.68757,-22.62339 -26.36235,-37.18119 -44.36666,-39.76827 -4.34826,-0.6248 -8.68934,-0.99415 -13.10329,-0.96083 z"
       id="path2475"
       inkscape:connector-curvature="0"
       sodipodi:nodetypes="ccccccccc" />
    <path
       style="fill:#e60ec9;fill-opacity:1;stroke:none;stroke-width:1.99999964;stroke-linecap:butt;stroke-linejoin:miter;stroke-miterlimit:4;stroke-dasharray:none;stroke-opacity:1"
       d="m 133.11227,366.90625 c -17.141,18.1171 -34.514756,37.63623 -55.765506,40.0889 -7.42778,3.17099 -32.37323,10.72889 -52.8769,-4.76953 7.45576,15.26615 22.95928,26.56668 38.10452,28.74292 7.04462,1.01228 14.91801,1.27537 23.28072,0.30441 32.068336,-13.73138 29.121286,-40.12186 47.257166,-64.3667 z"
       id="path2477"
       inkscape:connector-curvature="0"
       sodipodi:nodetypes="cccccc" />
    <path
       style="fill:#e33208;fill-opacity:1;stroke:none;stroke-width:1.99999964;stroke-linecap:butt;stroke-linejoin:miter;stroke-miterlimit:4;stroke-dasharray:none;stroke-opacity:1"
       d="m 201.62519,319.18909 c -15.49497,3.26456 -32.68744,12.65417 -54.5624,33.67064 -4.68108,4.33199 -9.30782,9.13958 -13.95052,14.04652 -18.14594,24.24787 -15.1947,50.64378 -47.267506,64.37753 19.167056,-2.22564 40.916466,-10.96434 61.235936,-32.24618 6.49119,-6.41817 13.20152,-13.79703 20.14869,-21.0118 5.25743,-10.07621 5.16431,-21.77986 10.49562,-34.43543 6.70089,-15.90663 18.54107,-22.25337 23.90018,-24.40128 z"
       id="path2479"
       inkscape:connector-curvature="0" />
    <path
       style="fill:url(#linearGradient2528);fill-opacity:1;stroke:none;stroke-width:1.99999976;stroke-linecap:butt;stroke-linejoin:miter;stroke-miterlimit:4;stroke-dasharray:none;stroke-opacity:1"
       d="m 175.58463,322.4303 c -0.42266,0.30173 -0.84787,0.60865 -1.27335,0.9179 -0.19671,0.14297 -0.39376,0.28807 -0.59108,0.43266 -0.76774,0.56256 -1.53994,1.13731 -2.31706,1.72465 -0.13545,0.10241 -0.2703,0.20305 -0.40603,0.30619 -0.42043,0.31943 -0.8428,0.64371 -1.26603,0.97049 -0.22786,0.17593 -0.45693,0.35443 -0.6856,0.5325 -0.69471,0.54095 -1.39304,1.09184 -2.0954,1.65276 -0.21714,0.17342 -0.43377,0.34585 -0.65166,0.52119 -0.43694,0.35162 -0.87533,0.70692 -1.31528,1.06634 -0.21806,0.17816 -0.43685,0.35974 -0.65565,0.53983 -0.647,0.53245 -1.29801,1.07334 -1.95162,1.6228 -0.32706,0.27496 -0.65441,0.55079 -0.98314,0.83004 -0.3772,0.32041 -0.75481,0.64238 -1.13424,0.96851 -0.37822,0.32509 -0.75843,0.65564 -1.1389,0.98645 -0.55703,0.48431 -1.11614,0.97505 -1.67805,1.4717 -0.27595,0.24393 -0.5529,0.48927 -0.83004,0.73619 -1.02152,0.91011 -2.0493,1.83629 -3.0872,2.78766 -1.10482,1.01276 -2.21959,2.04941 -3.34345,3.10983 -0.008,0.008 -0.0163,0.0154 -0.0246,0.0233 -1.2e-4,2.8e-4 -6.8e-4,3.5e-4 -6.8e-4,6.9e-4 -12.39504,27.04378 -7.65747,66.18176 -37.98087,89.35822 6.8e-4,-3.3e-4 0.001,-3.4e-4 0.002,-6.9e-4 12.00207,-6.49411 24.0988,-15.52519 35.82622,-27.80803 0.80069,-0.79168 1.60636,-1.60381 2.41225,-2.41692 5.30673,-9.90107 3.48827,-30.70935 6.74484,-47.02013 3.32246,-16.64113 11.69339,-27.21862 18.42464,-33.31413 z"
       id="path2512"
       inkscape:connector-curvature="0" />
    <path
       inkscape:connector-curvature="0"
       id="path2533"
       d="m 98.348348,333.96031 c -8.47333,-0.0514 -16.8316,1.06126 -23.73542,3.48482 -6.89917,2.42195 -12.02949,5.2199 -15.72132,7.69648 12.71862,-6.32648 28.59426,-5.295 38.9032,0.28272 10.745962,5.81423 20.986352,15.12716 26.636802,20.75617 l 13.98443,-13.76485 c -4.30684,-4.09456 -10.66714,-9.73206 -16.49607,-14.01726 -0.67322,-0.4949 -1.57638,-1.16922 -2.51166,-1.86102 -6.55316,-1.64017 -13.8454,-2.53325 -21.059962,-2.57706 z m 70.645182,51.98733 -13.67566,13.45938 c 0.64921,0.5904 1.34722,1.21488 2.08707,1.86751 5.84237,2.98258 15.86451,7.371 28.79449,10.19663 8.17002,1.78544 18.81085,0.82329 27.03782,-0.47339 -6.2432,-0.37165 -12.15749,-1.97542 -16.89523,-4.53881 -10.61949,-5.74577 -21.32719,-14.76928 -27.34849,-20.51132 z"
       style="fill:#03f4fd;fill-opacity:1;stroke:none;stroke-width:1.99999964;stroke-linecap:butt;stroke-linejoin:miter;stroke-miterlimit:4;stroke-dasharray:none;stroke-opacity:1" />
    <path
       sodipodi:nodetypes="cccscccccc"
       inkscape:connector-curvature="0"
       id="path2535"
       d="m 73.189268,317.67055 c -4.04762,0.0303 -10.33606,0.5374 -14.33801,1.65954 -9.24277,2.59165 -17.14354,6.55562 -23.46807,12.01757 -3.34447,6.48805 -5.12032,18.16326 -2.36516,33.99672 2.08152,11.96217 6.71263,17.23648 9.28781,19.323 -3.05755,-8.13239 -2.97861,-17.32946 1.72088,-25.58202 3.67151,-6.4474 8.92176,-10.99667 14.8571,-13.94901 3.69183,-2.47658 8.82215,-5.27453 15.72133,-7.69648 12.78594,-4.48848 30.553632,-4.47329 44.802902,-0.90236 -8.34313,-6.17148 -26.557422,-19.01856 -46.218782,-18.86696 z"
       style="fill:#0071fe;fill-opacity:1;stroke:none;stroke-width:1.99999964;stroke-linecap:butt;stroke-linejoin:miter;stroke-miterlimit:4;stroke-dasharray:none;stroke-opacity:1" />
    <path
       style="fill:url(#radialGradient2625);fill-opacity:1;stroke:none;stroke-width:0.26458332px;stroke-linecap:butt;stroke-linejoin:miter;stroke-opacity:1"
       d="m 100.63705,349.85663 c -10.626547,-0.0344 -21.607229,2.24668 -31.793923,8.78139 -20.273502,13.00528 -13.172405,35.26869 -1.534273,48.02084 1.22375,0.25932 2.470017,0.44739 3.736207,0.55602 2.139731,0.10081 4.238649,0.0185 6.301941,-0.21963 5.86676,-0.67709 11.437779,-2.65692 16.790189,-5.54693 -13.79405,-10.28446 -27.985247,-27.83507 -22.978959,-35.5813 5.449887,-8.43259 18.621827,-10.10399 36.764678,-5.75726 6.08722,1.45839 10.92169,4.49644 14.66164,7.88893 l 11.86542,-11.6789 c -9.5903,-3.25442 -21.46076,-6.42318 -33.81292,-6.46316 z"
       id="path2540"
       inkscape:connector-curvature="0" />
    <path
       sodipodi:nodetypes="cscscsccccc"
       inkscape:connector-curvature="0"
       id="path2542"
       d="m 256.89713,226.32689 c -0.57086,3.07377 -1.65323,6.11932 -3.31936,9.04515 -7.92225,13.91193 -23.17982,19.0167 -36.85944,18.204 -8.22772,1.29683 -18.87155,2.25921 -27.04346,0.47339 -12.93057,-2.82576 -22.95318,-7.21405 -28.79543,-10.19665 4.46342,3.93725 10.3487,8.81152 14.8138,12.21148 7.83619,5.96695 37.44737,26.24474 63.05997,19.06305 1.72909,-0.48484 3.4013,-1.03795 5.02518,-1.64548 6.82075,-6.84068 11.77443,-16.19943 12.98787,-26.15398 1.26998,-10.41811 0.86479,-16.99759 0.13077,-21.00096 z"
       style="fill:#23e31c;fill-opacity:1;stroke:none;stroke-width:1.99999964;stroke-linecap:butt;stroke-linejoin:miter;stroke-miterlimit:4;stroke-dasharray:none;stroke-opacity:1" />
    <path
       sodipodi:nodetypes="csccccsc"
       inkscape:connector-curvature="0"
       id="path2544"
       d="m 38.891858,173.91707 c -11.20846,9.67374 -17.44944,24.06536 -17.29815,43.97345 0.0728,9.57617 2.3903,18.80267 6.35066,26.91224 20.502941,15.49849 45.44801,7.94165 52.8769,4.77064 -2.06329,0.23808 -4.16198,0.32069 -6.30171,0.2199 -13.17173,-1.13026 -24.266389,-10.71092 -28.716339,-22.54675 -2.575191,-2.08652 -7.206301,-7.36083 -9.287821,-19.323 -2.76155,-15.87028 -0.97031,-27.53516 2.37646,-34.00648 z"
       style="fill:#9100ff;fill-opacity:1;stroke:none;stroke-width:1.99999964;stroke-linecap:butt;stroke-linejoin:miter;stroke-miterlimit:4;stroke-dasharray:none;stroke-opacity:1" />
    <path
       inkscape:connector-curvature="0"
       id="path2546"
       d="m 238.88776,178.079 c -7.12565,0.14773 -13.8953,2.02399 -19.21468,4.92013 -4.46055,2.42855 -8.36342,5.45136 -11.03182,7.72357 5.81241,-2.45542 11.78789,-3.7692 17.94078,-3.47941 19.01337,1.63153 33.69741,20.86965 30.31475,39.08365 0.73393,4.00334 1.13993,10.58284 -0.12998,21.00097 -1.21348,9.95451 -6.16738,19.31329 -12.98819,26.15397 22.43034,-8.39143 34.76016,-28.17624 35.07023,-50.9604 0.10571,-7.76025 -0.92909,-14.94263 -2.85435,-21.45809 -0.22036,-0.44205 -0.44589,-0.87381 -0.67378,-1.30207 -0.18153,-0.33965 -0.36583,-0.67479 -0.55247,-1.00525 -0.0141,-0.0268 -0.0295,-0.0545 -0.0444,-0.0814 -0.005,-0.008 -0.0109,-0.0168 -0.0141,-0.026 -8.7472,-15.39919 -22.87257,-20.83835 -35.8209,-20.56985 z"
       style="fill:#f3e40b;fill-opacity:1;stroke:none;stroke-width:1.99999964;stroke-linecap:butt;stroke-linejoin:miter;stroke-miterlimit:4;stroke-dasharray:none;stroke-opacity:1" />
    <path
       sodipodi:nodetypes="ccccccccc"
       inkscape:connector-curvature="0"
       id="path2548"
       d="m 218.52494,160.33422 c -4.37734,0.0332 -8.82675,0.46429 -13.42525,1.43312 -5.35908,2.14791 -17.19929,8.49465 -23.90015,24.4013 -5.33122,12.65526 -5.23826,24.35933 -10.49561,34.43542 11.87394,-12.33136 24.45483,-24.17254 37.92129,-29.86736 2.66877,-2.27371 6.57896,-5.30435 11.04822,-7.73765 15.47456,-8.42509 43.21631,-8.21956 56.32145,18.06427 -6.68757,-22.62339 -26.36235,-37.18119 -44.36666,-39.76827 -4.34826,-0.6248 -8.68934,-0.99415 -13.10329,-0.96083 z"
       style="fill:#ffa101;fill-opacity:1;stroke:none;stroke-width:1.99999964;stroke-linecap:butt;stroke-linejoin:miter;stroke-miterlimit:4;stroke-dasharray:none;stroke-opacity:1" />
    <path
       sodipodi:nodetypes="cccccc"
       inkscape:connector-curvature="0"
       id="path2550"
       d="m 136.58677,209.4845 c -17.141,18.1171 -34.51475,37.63623 -55.765502,40.0889 -7.42778,3.17099 -32.373229,10.72889 -52.8769,-4.76953 7.45576,15.26615 22.95928,26.56668 38.10452,28.74292 7.04462,1.01228 14.91801,1.27537 23.28072,0.30441 32.068332,-13.73138 29.121282,-40.12186 47.257162,-64.3667 z"
       style="fill:#e60ec9;fill-opacity:1;stroke:none;stroke-width:1.99999964;stroke-linecap:butt;stroke-linejoin:miter;stroke-miterlimit:4;stroke-dasharray:none;stroke-opacity:1" />
    <path
       inkscape:connector-curvature="0"
       id="path2552"
       d="m 205.09969,161.76734 c -15.49497,3.26456 -32.68744,12.65417 -54.5624,33.67064 -4.68108,4.33199 -9.30782,9.13958 -13.95052,14.04652 -18.14594,24.24787 -15.1947,50.64378 -47.267502,64.37753 19.167052,-2.22564 40.916462,-10.96434 61.235932,-32.24618 6.49119,-6.41817 13.20152,-13.79703 20.14869,-21.0118 5.25743,-10.07621 5.16431,-21.77986 10.49562,-34.43543 6.70089,-15.90663 18.54107,-22.25337 23.90018,-24.40128 z"
       style="fill:#e33208;fill-opacity:1;stroke:none;stroke-width:1.99999964;stroke-linecap:butt;stroke-linejoin:miter;stroke-miterlimit:4;stroke-dasharray:none;stroke-opacity:1" />
    <path
       inkscape:connector-curvature="0"
       id="path2554"
       d="m 179.05913,165.00855 c -0.42266,0.30173 -0.84787,0.60865 -1.27335,0.9179 -0.19671,0.14297 -0.39376,0.28807 -0.59108,0.43266 -0.76774,0.56256 -1.53994,1.13731 -2.31706,1.72465 -0.13545,0.10241 -0.2703,0.20305 -0.40603,0.30619 -0.42043,0.31943 -0.8428,0.64371 -1.26603,0.97049 -0.22786,0.17593 -0.45693,0.35443 -0.6856,0.5325 -0.69471,0.54095 -1.39304,1.09184 -2.0954,1.65276 -0.21714,0.17342 -0.43377,0.34585 -0.65166,0.52119 -0.43694,0.35162 -0.87533,0.70692 -1.31528,1.06634 -0.21806,0.17816 -0.43685,0.35974 -0.65565,0.53983 -0.647,0.53245 -1.29801,1.07334 -1.95162,1.6228 -0.32706,0.27496 -0.65441,0.55079 -0.98314,0.83004 -0.3772,0.32041 -0.75481,0.64238 -1.13424,0.96851 -0.37822,0.32509 -0.75843,0.65564 -1.1389,0.98645 -0.55703,0.48431 -1.11614,0.97505 -1.67805,1.4717 -0.27595,0.24393 -0.5529,0.48927 -0.83004,0.73619 -1.02152,0.91011 -2.0493,1.83629 -3.0872,2.78766 -1.10482,1.01276 -2.21958,2.04941 -3.34345,3.10983 -0.008,0.008 -0.0163,0.0154 -0.0246,0.0233 -1.2e-4,2.8e-4 -6.8e-4,3.5e-4 -6.8e-4,6.9e-4 -12.39504,27.04378 -7.65746,66.18176 -37.98087,89.35822 6.8e-4,-3.3e-4 0.001,-3.4e-4 0.002,-6.9e-4 12.00207,-6.49411 24.0988,-15.52519 35.82622,-27.80803 0.80069,-0.79168 1.60636,-1.60381 2.41225,-2.41692 5.30673,-9.90107 3.48827,-30.70935 6.74484,-47.02013 3.32246,-16.64113 11.69339,-27.21862 18.42464,-33.31413 z"
       style="fill:url(#linearGradient2562);fill-opacity:1;stroke:none;stroke-width:1.99999976;stroke-linecap:butt;stroke-linejoin:miter;stroke-miterlimit:4;stroke-dasharray:none;stroke-opacity:1" />
    <path
       style="fill:#03f4fd;fill-opacity:1;stroke:none;stroke-width:7.5590539;stroke-linecap:butt;stroke-linejoin:miter;stroke-miterlimit:4;stroke-dasharray:none;stroke-opacity:1"
       d="M 384.8418 156.99609 C 352.81662 156.80183 321.22599 161.00806 295.13281 170.16797 C 269.05721 179.3218 249.66822 189.89556 235.71484 199.25586 C 283.78522 175.34475 343.78708 179.24307 382.75 200.32422 C 384.39882 201.21633 386.04211 202.13838 387.68359 203.07227 C 394.64176 202.54058 401.58323 202.29602 408.48438 202.31836 C 455.16895 202.4695 500.0328 214.44799 536.2793 226.74805 C 520.00148 211.27254 495.96224 189.96556 473.93164 173.76953 C 471.38719 171.89904 467.97437 169.35101 464.43945 166.73633 C 439.6716 160.53726 412.10943 157.16167 384.8418 156.99609 z M 651.84766 353.48438 L 600.16016 404.35352 C 602.61386 406.58495 605.25254 408.94548 608.04883 411.41211 C 630.13023 422.68485 668.00774 439.27163 716.87695 449.95117 C 747.75577 456.69929 787.9743 453.06295 819.06836 448.16211 C 795.47201 446.75745 773.11931 440.69426 755.21289 431.00586 C 715.07624 409.28956 674.60533 375.18657 651.84766 353.48438 z "
       transform="matrix(0.26458333,0,0,0.26458333,0,135)"
       id="path2556" />
    <path
       style="fill:#0071fe;fill-opacity:1;stroke:none;stroke-width:1.99999964;stroke-linecap:butt;stroke-linejoin:miter;stroke-miterlimit:4;stroke-dasharray:none;stroke-opacity:1"
       d="m 76.663772,160.2488 c -4.04762,0.0303 -10.33606,0.5374 -14.33801,1.65954 -9.24277,2.59165 -17.14354,6.55562 -23.46807,12.01757 -3.34447,6.48805 -5.12032,18.16326 -2.36516,33.99672 2.08152,11.96217 6.71263,17.23648 9.28781,19.323 -3.05755,-8.13239 -2.97861,-17.32946 1.72088,-25.58202 3.67151,-6.4474 8.92176,-10.99667 14.8571,-13.94901 3.69183,-2.47658 8.82215,-5.27453 15.72133,-7.69648 12.78594,-4.48848 30.553628,-4.47329 44.802898,-0.90236 -8.34313,-6.17148 -26.557418,-19.01856 -46.218778,-18.86696 z"
       id="path2558"
       inkscape:connector-curvature="0"
       sodipodi:nodetypes="cccscccccc" />
    <path
       style="fill:url(#radialGradient2584);stroke:none;stroke-width:0.99999994px;stroke-linecap:butt;stroke-linejoin:miter;stroke-opacity:1;fill-opacity:1"
       d="M 393.49219 217.07617 C 353.32885 216.94615 311.82706 225.56955 273.32617 250.26758 C 205.79997 293.58511 218.63208 364.07744 252.73438 413.19531 C 258.76364 414.8329 264.97178 415.97215 271.32812 416.51758 C 278.64001 416.86201 285.81261 416.57921 292.86328 415.76562 C 312.85867 413.45785 331.84746 406.72032 350.09375 396.88672 C 304.89049 357.7057 265.44136 303.3269 282.07617 277.58789 C 302.67417 245.71668 352.45788 239.39954 421.0293 255.82812 C 444.17871 261.37434 462.53584 272.96484 476.70703 285.88281 C 478.94248 283.51281 481.19138 281.13301 483.42383 278.77344 L 521.28711 241.50586 C 485.0406 229.20582 440.17676 217.22731 393.49219 217.07617 z "
       transform="matrix(0.26458333,0,0,0.26458333,0,135)"
       id="path2560" />
    <path
       style="fill:url(#radialGradient2604);stroke:none;stroke-width:0.26458332px;stroke-linecap:butt;stroke-linejoin:miter;stroke-opacity:1;fill-opacity:1"
       d="m 226.81694,193.61776 c -5.74728,-0.0855 -11.33982,1.21282 -16.78864,3.51451 -0.005,0.005 -0.012,0.009 -0.0171,0.0145 -0.65516,0.27706 -1.30755,0.573 -1.95854,0.8785 12.2893,10.40851 23.29721,25.28988 18.79782,32.25178 -5.44989,8.43259 -18.62183,10.104 -36.76468,5.75727 -0.58705,-0.14065 -1.16207,-0.29669 -1.726,-0.4656 4.52277,3.45591 9.51055,6.8674 14.48543,9.5591 0.52778,0.28557 1.07251,0.55718 1.62832,0.81856 8.35075,-0.84597 16.76205,-3.35329 24.69203,-8.44032 17.52888,-11.24463 14.59262,-29.41088 5.95416,-42.3664 -2.29125,-0.76383 -4.68447,-1.27452 -7.1515,-1.48622 -0.38453,-0.0181 -0.7682,-0.03 -1.15135,-0.0357 z"
       id="path2569"
       inkscape:connector-curvature="0" />
    <path
       style="fill:url(#radialGradient2629);fill-opacity:1;stroke:none;stroke-width:0.26458332px;stroke-linecap:butt;stroke-linejoin:miter;stroke-opacity:1"
       d="m 221.95626,344.62955 c -5.74728,-0.0855 -11.33982,1.21285 -16.78864,3.51451 -0.005,0.005 -0.0117,0.01 -0.0171,0.0145 -1.61468,0.68283 -3.21639,1.4565 -4.80591,2.30632 13.64289,10.32888 27.4552,27.56339 22.50612,35.22112 -5.44989,8.43258 -18.62182,10.10398 -36.76468,5.75725 -6.08721,-1.45838 -10.92169,-4.49643 -14.66164,-7.88892 l -11.86542,11.67889 c 9.59031,3.25443 21.46076,6.42319 33.81292,6.46316 10.62655,0.0344 21.60723,-2.24665 31.79392,-8.78138 20.08021,-12.88127 13.30444,-34.84335 1.86501,-47.65186 -1.28375,-0.28035 -2.59239,-0.48371 -3.92328,-0.5979 -0.38453,-0.0181 -0.7682,-0.03 -1.15135,-0.0357 z m -13.7449,1.82729 c -0.59525,0.19828 -1.18712,0.41061 -1.77663,0.63355 -0.44201,0.36094 -0.86711,0.71342 -1.25832,1.04645 0.60258,-0.50975 1.68797,-1.07902 3.03495,-1.68 z"
       id="path2627"
       inkscape:connector-curvature="0" />
    <path
       style="fill:#03f4fd;fill-opacity:1;stroke:none;stroke-width:1.99999964;stroke-linecap:butt;stroke-linejoin:miter;stroke-miterlimit:4;stroke-dasharray:none;stroke-opacity:1"
       d="m 99.926166,18.368919 c -8.47333,-0.0514 -16.831602,1.06126 -23.735422,3.48482 -6.89916,2.42195 -12.02949,5.2199 -15.72131,7.69648 12.71862,-6.32648 28.594252,-5.295 38.903192,0.28272 10.745964,5.81423 20.986354,15.12716 26.636804,20.75617 l 13.98443,-13.76485 c -4.30684,-4.09456 -10.66714,-9.73206 -16.49607,-14.01726 -0.67322,-0.4949 -1.57638,-1.16922 -2.51166,-1.86102 -6.55316,-1.64017 -13.8454,-2.53325 -21.059964,-2.57706 z m 70.645184,51.987332 -13.67566,13.45938 c 0.64921,0.5904 1.34722,1.21488 2.08707,1.86751 5.84237,2.98258 15.86451,7.371 28.79449,10.19663 8.17002,1.78544 18.81085,0.82329 27.03782,-0.47339 -6.2432,-0.37165 -12.15749,-1.97542 -16.89523,-4.53881 -10.61949,-5.74577 -21.32719,-14.76928 -27.34849,-20.51132 z"
       id="path2637"
       inkscape:connector-curvature="0" />
    <path
       style="fill:#0071fe;fill-opacity:1;stroke:none;stroke-width:1.99999964;stroke-linecap:butt;stroke-linejoin:miter;stroke-miterlimit:4;stroke-dasharray:none;stroke-opacity:1"
       d="m 74.767094,2.0791587 c -4.04763,0.0303 -10.33606,0.5374 -14.33802,1.65954 -9.24277,2.59165 -17.14354,6.5556203 -23.46807,12.0175703 -3.34447,6.48805 -5.12031,18.16326 -2.36516,33.99672 2.08152,11.96217 6.71264,17.236482 9.28781,19.323002 -3.05754,-8.132392 -2.97861,-17.329462 1.72088,-25.582022 3.67152,-6.4474 8.92177,-10.99667 14.85711,-13.94901 3.69182,-2.47658 8.82215,-5.27453 15.72132,-7.69648 12.785942,-4.48848 30.553636,-4.47329 44.802906,-0.90236 C 112.64274,14.774639 94.428456,1.9275587 74.767094,2.0791587 Z"
       id="path2639"
       inkscape:connector-curvature="0"
       sodipodi:nodetypes="cccscccccc" />
    <path
       style="fill:#9100ff;fill-opacity:1;stroke:none;stroke-width:1.99999964;stroke-linecap:butt;stroke-linejoin:miter;stroke-miterlimit:4;stroke-dasharray:none;stroke-opacity:1"
       d="m 36.972304,15.746509 c -11.20847,9.67374 -17.44944,24.06536 -17.29816,43.97345 0.0728,9.576172 2.3903,18.802672 6.35066,26.912242 20.50294,15.498489 45.44801,7.94165 52.8769,4.77064 -2.06329,0.23808 -4.16197,0.32069 -6.3017,0.2199 -13.17173,-1.13026 -24.2664,-10.71092 -28.71635,-22.54675 -2.57519,-2.08652 -7.20629,-7.360832 -9.28781,-19.323002 -2.76156,-15.87028 -0.97032,-27.53516 2.37646,-34.00648 z"
       id="path2641"
       inkscape:connector-curvature="0"
       sodipodi:nodetypes="csccccsc" />
    <path
       style="fill:#e60ec9;fill-opacity:1;stroke:none;stroke-width:1.99999964;stroke-linecap:butt;stroke-linejoin:miter;stroke-miterlimit:4;stroke-dasharray:none;stroke-opacity:1"
       d="m 134.66721,51.313939 c -17.141,18.117102 -34.51475,37.636232 -55.765506,40.088902 -7.42778,3.17099 -32.37323,10.728889 -52.8769,-4.76953 7.45577,15.266149 22.95928,26.566679 38.10453,28.742919 7.04461,1.01228 14.918,1.27537 23.280722,0.30441 32.068324,-13.73138 29.121274,-40.121859 47.257154,-64.366701 z"
       id="path2643"
       inkscape:connector-curvature="0"
       sodipodi:nodetypes="cccccc" />
    <path
       style="fill:#e33208;fill-opacity:1;stroke:none;stroke-width:1.99999964;stroke-linecap:butt;stroke-linejoin:miter;stroke-miterlimit:4;stroke-dasharray:none;stroke-opacity:1"
       d="m 203.18013,3.5967787 c -15.49497,3.26456 -32.68744,12.6541703 -54.5624,33.6706403 -4.68108,4.33199 -9.30782,9.13958 -13.95052,14.04652 -18.14594,24.247872 -15.1947,50.643781 -47.267504,64.377531 19.167054,-2.22564 40.916464,-10.96434 61.235934,-32.246179 6.49119,-6.41817 13.20152,-13.79703 20.14869,-21.011802 5.25743,-10.07621 5.16431,-21.77986 10.49562,-34.43543 6.70089,-15.90663 18.54107,-22.2533703 23.90018,-24.4012803 z"
       id="path2645"
       inkscape:connector-curvature="0" />
    <path
       style="fill:#f3e40b;fill-opacity:1;stroke:none;stroke-width:1.99999964;stroke-linecap:butt;stroke-linejoin:miter;stroke-miterlimit:4;stroke-dasharray:none;stroke-opacity:1"
       d="m 236.9682,19.908439 c -7.12565,0.14773 -13.8953,2.02399 -19.21468,4.92013 -4.46055,2.42855 -8.36342,5.45136 -11.03182,7.72357 5.81241,-2.45542 11.78789,-3.7692 17.94078,-3.47941 19.01337,1.63153 33.69741,20.86965 30.31475,39.083652 0.73393,4.00334 1.13993,10.58284 -0.12998,21.00097 -1.21348,9.95451 -6.16738,19.313289 -12.98819,26.153969 22.43034,-8.39143 34.76016,-28.176239 35.07023,-50.960401 0.10571,-7.76025 -0.92909,-14.94263 -2.85435,-21.45809 -0.22036,-0.44205 -0.44589,-0.87381 -0.67378,-1.30207 -0.18153,-0.33965 -0.36583,-0.67479 -0.55247,-1.00525 -0.0141,-0.0268 -0.0295,-0.0545 -0.0444,-0.0814 -0.005,-0.008 -0.0109,-0.0168 -0.0141,-0.026 -8.7472,-15.39919 -22.87257,-20.83835 -35.8209,-20.56985 z"
       id="path2647"
       inkscape:connector-curvature="0" />
    <path
       style="fill:#23e31c;fill-opacity:1;stroke:none;stroke-width:1.99999964;stroke-linecap:butt;stroke-linejoin:miter;stroke-miterlimit:4;stroke-dasharray:none;stroke-opacity:1"
       d="m 254.97757,68.156331 c -0.57086,3.07377 -1.65323,6.11932 -3.31936,9.04515 -7.92225,13.91193 -23.17982,19.0167 -36.85944,18.204 -8.22772,1.29683 -18.87155,2.25921 -27.04346,0.47339 -12.93057,-2.82576 -22.95318,-7.21405 -28.79543,-10.19665 4.46342,3.93725 10.3487,8.81152 14.8138,12.21148 7.83619,5.966949 37.44737,26.244739 63.05997,19.063049 1.72909,-0.48484 3.4013,-1.03795 5.02518,-1.64548 6.82075,-6.84068 11.77443,-16.199429 12.98787,-26.153979 1.26998,-10.41811 0.86479,-16.99759 0.13077,-21.00096 z"
       id="path2649"
       inkscape:connector-curvature="0"
       sodipodi:nodetypes="cscscsccccc" />
    <path
       style="fill:#ffa101;fill-opacity:1;stroke:none;stroke-width:1.99999964;stroke-linecap:butt;stroke-linejoin:miter;stroke-miterlimit:4;stroke-dasharray:none;stroke-opacity:1"
       d="m 216.60538,2.1636587 c -4.37734,0.0332 -8.82675,0.46429 -13.42525,1.43312 -5.35908,2.14791 -17.19929,8.4946503 -23.90015,24.4013003 -5.33122,12.65526 -5.23826,24.35933 -10.49561,34.43542 11.87394,-12.33136 24.45483,-24.17254 37.92129,-29.86736 2.66877,-2.27371 6.57896,-5.30435 11.04822,-7.73765 15.47456,-8.42509 43.21631,-8.21956 56.32145,18.06427 -6.68757,-22.62339 -26.36235,-37.1811903 -44.36666,-39.7682703 -4.34826,-0.6248 -8.68934,-0.99415 -13.10329,-0.96083 z"
       id="path2651"
       inkscape:connector-curvature="0"
       sodipodi:nodetypes="ccccccccc" />
  </g>
</svg>
